test_run_dir/DataPath_Test/DataPath.vcd
$date
2023-09-11T20:50+0000
$end
$version
0.2
$end
$comment

$end
$timescale 1ns  $end
$scope module DataPath $end
 $var wire 1 ) datamem $end
 $var wire 16 , _regfile_io_datain_T_3 $end
 $var wire 16 - _datamem_io_datain_T_3 $end
 $var wire 1 / regfile $end
 $var wire 32 1 io_out $end
 $var wire 1 = _datamem_io_datain_T_6 $end
 $var wire 5 @ _alu_io_alu_Op_T $end
 $var wire 32 I _regfile_io_datain_T_9 $end
 $var wire 9 N _regfile_io_datain_T $end
 $var wire 1 h _datamem_io_datain_T_8 $end
 $var wire 1 | alu $end
 $var wire 16 } _datamem_io_datain_T_2 $end
 $var wire 16 "% _regfile_io_datain_T_2 $end
 $var wire 1 "* insmem $end
 $var wire 9 ". _regfile_io_datain_T_5 $end
 $var wire 9 "1 _datamem_io_datain_T_5 $end
 $var wire 9 "7 _datamem_io_datain_T $end
 $var wire 1 "B cu $end
 $var wire 1 "D clock $end
 $var wire 1 "Z _datamem_io_datain_T_4 $end
 $var wire 16 "] _datamem_io_datain_T_7 $end
 $var wire 16 "c _regfile_io_datain_T_7 $end
 $var wire 1 "j pc $end
 $var wire 9 "n _regfile_io_datain_T_1 $end
 $var wire 9 "p _datamem_io_datain_T_1 $end
 $var wire 1 "| _alu_io_in_B_T $end
 $var wire 1 #( reset $end
 $var wire 32 #5 _datamem_io_datain_T_9 $end
  $scope module regfile $end
   $var wire 1 6 _T $end
   $var wire 5 [ io_Rs2in $end
   $var wire 1 d clock $end
   $var wire 1 r io_Wen $end
   $var wire 32 "" io_Rs2out $end
   $var wire 5 "0 io_Rs1in $end
   $var wire 32 "H io_datain $end
   $var wire 32 "i regFile $end
   $var wire 32 #- io_Rs1out $end
   $var wire 5 #2 io_RD $end
    $scope module regFile $end
     $var wire 32 "x MPORT $end
      $scope module io_Rs1out_MPORT $end
       $var wire 5 ! addr $end
       $var wire 1 ; en $end
       $var wire 32 i data $end
       $var wire 1 "! clk $end
      $upscope $end
      $scope module io_Rs2out_MPORT $end
       $var wire 1 & clk $end
       $var wire 1 . en $end
       $var wire 5 "K addr $end
       $var wire 32 #6 data $end
      $upscope $end
      $scope module io_Rs1out_MPORT_1 $end
       $var wire 5 ( addr $end
       $var wire 32 f data $end
       $var wire 1 "5 en $end
       $var wire 1 "8 clk $end
      $upscope $end
      $scope module MPORT $end
       $var wire 32 0 data $end
       $var wire 5 L pipeline_addr_0 $end
       $var wire 1 Y clk $end
       $var wire 1 "/ mask $end
       $var wire 32 "O pipeline_data_0 $end
       $var wire 5 "_ addr $end
       $var wire 1 #+ pipeline_valid_0 $end
       $var wire 1 #/ valid $end
       $var wire 1 #0 en $end
      $upscope $end
      $scope module io_Rs2out_MPORT_1 $end
       $var wire 1 U clk $end
       $var wire 32 V data $end
       $var wire 1 Z en $end
       $var wire 5 #) addr $end
      $upscope $end
    $upscope $end
  $upscope $end
  $scope module datamem $end
   $var wire 32 S memory $end
   $var wire 32 o io_addr $end
   $var wire 32 "> io_dataout $end
   $var wire 1 "N clock $end
   $var wire 1 "V io_Wen $end
   $var wire 32 #8 io_datain $end
    $scope module memory $end
     $var wire 32 "q MPORT $end
      $scope module io_dataout_MPORT $end
       $var wire 5 8 addr $end
       $var wire 1 R en $end
       $var wire 32 s data $end
       $var wire 1 "T clk $end
      $upscope $end
      $scope module io_dataout_MPORT_1 $end
       $var wire 5 < addr $end
       $var wire 32 ~ data $end
       $var wire 1 "F clk $end
       $var wire 1 "\ en $end
      $upscope $end
      $scope module MPORT $end
       $var wire 32 C data $end
       $var wire 1 D valid $end
       $var wire 32 _ pipeline_data_0 $end
       $var wire 1 "3 clk $end
       $var wire 1 ": mask $end
       $var wire 5 "C addr $end
       $var wire 1 "l pipeline_valid_0 $end
       $var wire 1 "u en $end
       $var wire 5 #$ pipeline_addr_0 $end
      $upscope $end
    $upscope $end
  $upscope $end
  $scope module pc $end
   $var wire 1 ] reset $end
   $var wire 32 "J counter $end
   $var wire 32 "r io_nextaddr $end
   $var wire 32 ## _counter_T_1 $end
   $var wire 33 #' _counter_T $end
   $var wire 1 #9 clock $end
  $upscope $end
  $scope module cu $end
   $var wire 5 $ _GEN_2 $end
   $var wire 32 % io_Imm $end
   $var wire 4 ' _io_func_T_3 $end
   $var wire 3 2 _GEN_24 $end
   $var wire 5 3 _GEN_18 $end
   $var wire 1 7 _io_func_T_14 $end
   $var wire 12 : _io_Imm_T_5 $end
   $var wire 1 > _io_func_T_6 $end
   $var wire 4 E _io_func_T_17 $end
   $var wire 1 J _T $end
   $var wire 4 K _io_func_T $end
   $var wire 5 O _io_Rs1_T $end
   $var wire 4 P _io_func_T_11 $end
   $var wire 2 X _io_func_T_5 $end
   $var wire 1 ^ io_func_lo $end
   $var wire 5 ` _io_RD_T $end
   $var wire 12 b _GEN_11 $end
   $var wire 12 c _GEN_20 $end
   $var wire 5 e _GEN_7 $end
   $var wire 1 g io_aluselect $end
   $var wire 5 j io_RD $end
   $var wire 1 l _io_func_T_8 $end
   $var wire 2 u _io_lengthselect_T $end
   $var wire 12 v _io_Imm_T_1 $end
   $var wire 1 x io_Instype $end
   $var wire 1 z io_MemWrite $end
   $var wire 1 { _io_func_T_10 $end
   $var wire 4 "& _GEN_17 $end
   $var wire 2 "( io_lengthselect $end
   $var wire 12 ", _GEN_4 $end
   $var wire 4 "- _io_func_T_13 $end
   $var wire 12 "2 _io_Imm_T_4 $end
   $var wire 12 "< _io_Imm_T $end
   $var wire 1 "= _io_func_T_16 $end
   $var wire 1 "E _GEN_22 $end
   $var wire 5 "I _GEN_16 $end
   $var wire 1 "L _io_func_T_4 $end
   $var wire 5 "M _GEN_10 $end
   $var wire 5 "R io_Rs2 $end
   $var wire 1 "S io_wbselect $end
   $var wire 5 "W _GEN_19 $end
   $var wire 5 "X _GEN_3 $end
   $var wire 3 "[ _io_func_T_7 $end
   $var wire 7 "` io_Imm_lo $end
   $var wire 7 "b Opcode $end
   $var wire 1 "d _GEN_13 $end
   $var wire 3 "e _GEN_6 $end
   $var wire 4 "f _io_func_T_15 $end
   $var wire 5 "k _GEN_0 $end
   $var wire 5 "o _GEN_9 $end
   $var wire 3 "s io_func_hi $end
   $var wire 1 "} _io_func_T_12 $end
   $var wire 5 #! io_Rs1 $end
   $var wire 5 #& _io_Rs2_T $end
   $var wire 3 #. _GEN_33 $end
   $var wire 3 #1 _io_func_T_9 $end
   $var wire 5 #3 io_func $end
   $var wire 1 #7 _GEN_21 $end
   $var wire 3 #: _GEN_8 $end
   $var wire 3 #; _GEN_15 $end
   $var wire 32 #< io_ins $end
   $var wire 1 #= io_RegWrite $end
  $upscope $end
  $scope module insmem $end
   $var wire 32 " imem $end
   $var wire 32 B io_inst $end
   $var wire 1 n clock $end
   $var wire 32 "P io_addr $end
   $var wire 32 "w _io_inst_T $end
    $scope module imem $end
      $scope module io_inst_MPORT $end
       $var wire 1 * en $end
       $var wire 1 m clk $end
       $var wire 5 "9 addr $end
       $var wire 32 "z data $end
      $upscope $end
    $upscope $end
  $upscope $end
  $scope module alu $end
   $var wire 33 # _sum_T $end
   $var wire 32 + _io_out_T_5 $end
   $var wire 63 4 shitfl $end
   $var wire 63 5 _io_out_T_26 $end
   $var wire 1 9 _io_out_T_11 $end
   $var wire 1 ? _cmpU_T_2 $end
   $var wire 1 A _io_out_T_8 $end
   $var wire 1 F _io_out_T_14 $end
   $var wire 32 G _io_out_T_20 $end
   $var wire 63 H _io_out_T_29 $end
   $var wire 32 M _io_out_T_23 $end
   $var wire 32 Q sum $end
   $var wire 32 T shiftrl $end
   $var wire 1 W _io_out_T_17 $end
   $var wire 32 \ _sum_T_1 $end
   $var wire 1 a _io_out_T_7 $end
   $var wire 1 k _io_out_T_1 $end
   $var wire 4 p io_alu_Op $end
   $var wire 1 q _io_out_T_4 $end
   $var wire 32 t _GEN_0 $end
   $var wire 32 w _io_out_T_22 $end
   $var wire 2 y cmp $end
   $var wire 32 "# _sub_T_1 $end
   $var wire 32 "$ _io_out_T_16 $end
   $var wire 32 "' _io_out_T_10 $end
   $var wire 32 ") _io_out_T_19 $end
   $var wire 32 "+ io_in_B $end
   $var wire 32 "4 _cmpU_T_1 $end
   $var wire 63 "6 _io_out_T_25 $end
   $var wire 63 "; _io_out_T_28 $end
   $var wire 1 "? _io_out_T $end
   $var wire 32 "@ _io_out_T_13 $end
   $var wire 1 "A _io_out_T_3 $end
   $var wire 32 "G io_out $end
   $var wire 32 "Q shiftrA $end
   $var wire 2 "U cmpU $end
   $var wire 1 "Y _io_out_T_6 $end
   $var wire 63 "^ _io_out_T_27 $end
   $var wire 32 "a _io_out_T_9 $end
   $var wire 32 "g _io_out_T_21 $end
   $var wire 32 "h _io_out_T_15 $end
   $var wire 32 "m _cmpU_T $end
   $var wire 32 "t sub $end
   $var wire 33 "v _sub_T $end
   $var wire 63 "y _io_out_T_24 $end
   $var wire 1 "{ _io_out_T_18 $end
   $var wire 32 "~ io_in_A $end
   $var wire 63 #" _io_out_T_30 $end
   $var wire 1 #% _cmp_T $end
   $var wire 5 #* shamt $end
   $var wire 32 #, _io_out_T_12 $end
   $var wire 1 #4 _io_out_T_2 $end
  $upscope $end
$upscope $end
$enddefinitions $end
$dumpvars
0"L
b0000 '
0&
b000000000000000000000000000000000000000000000000000000000000000 5
b00000000000000000000000000000000 ">
0R
0=
b000000000000 b
b000000000000000000000000000000000000000000000000000000000000000 ";
b0000000 "`
b00000 "o
b00000000000000000000000000000000 #6
b00000000000000000000000000000000 "#
0"|
0#+
b000 #.
0m
b00000 "9
b00000000000000000000000000000000 "4
b00000000000000000000000000000000 Q
b00000 @
b000000000 N
0g
b0000 K
0"F
b00000 #)
b000000000 "7
b00 "(
b00000000000000000000000000000000 w
0a
b0000 E
0D
b00000000000000000000000000000000 0
0/
0x
b00000000000000000000000000000000 "G
b00 y
1"\
0F
0)
0z
b00000000010100000000000010010011 "
0r
0]
b00000000000000000000000000000000 s
b00000 j
b00000 8
b00 u
0W
b00000 O
b00000 "_
b000000000000000000000000000000000000000000000000000000000000000 4
0"j
b00000 "W
b000000000 "1
0"8
b000000000000 v
0"l
b0000000000000000 "c
0"d
0#0
b00000000000000000000000000000000 T
0>
b000000000000 c
b000 #;
06
b00000000000000000000000000000000 V
0"}
0l
b00000 "M
b00000 (
b0000 P
b00 X
b0000 "&
b00000000000000000000000000000000 "g
0{
0"Z
0"E
b000000000000000000000000000000000000000000000000000000000000000 "y
1*
b00000000000000000000000000000000 "~
b00000 #2
b000000000000 "<
b00000000000000000000000000000000 i
b00000000000000000000000000000000 "a
b00000000000000000000000000000000 #-
0"?
0"*
1"/
0"V
0#7
b00000000000000000000000000000000 "z
b000000000 "n
0"u
b00000000000000000000000000000000 "r
b00000000000000000000000000000000 "H
b00000000000000000000000000000000 "@
b00000000000000000000000000000000 "+
b00000 "0
0?
b00000000000000000000000000000000 #8
b00000000000000000000000000000000 t
b00000000000000000000000000000000 _
0"=
b000000000 ".
b00000000000000000000000000000000 B
0"T
b00000000000000000000000000000000 "'
b00000 e
0;
b000000000000000000000000000000000 #
b000 2
b00000 3
b00000 "X
b00000 "C
b00000 #$
0Z
0"N
0#/
b00000000000000000000000000000000 S
b0000000000000000 -
b0000 p
b000 #:
b000000000000000000000000000000000 "v
0q
b00000 "R
b00000 #3
b0000000 "b
0"3
b00000 L
07
b000000000000 "2
b00000000000000000000000000000000 "O
0k
09
b0000 "-
b000000000000000000000000000000000000000000000000000000000000000 H
b00000 "k
b00000 [
b00000000000000000000000000000000 "Q
b000000000000 ",
b00000000000000000000000000000000 f
0"D
0#%
b00000000000000000000000000000000 I
b00000000000000000000000000000000 "h
0|
b00000000000000000000000000000000 #,
0J
b00000000000000000000000000000000 "w
b00000000000000000000000000000000 M
b00000 <
b0000000000000000 }
0"B
b00000000000000000000000000000000 \
b00000000000000000000000000000000 G
b00000 !
0"Y
b00000000000000000000000000000000 "$
0"S
0#4
b00000 #!
b00000000000000000000000000000000 C
0"!
b000 "s
b00000000000000000000000000000000 o
0Y
0n
b0000000000000000 ,
b00000000000000000000000000000000 "q
b00000000000000000000000000000000 "i
b00000000000000000000000000000000 #5
b00000000000000000000000000000000 ""
b00000 `
0"{
b0000000000000000 "]
b0000 "f
0U
b00000000000000000000000000000000 "m
b000000000000000000000000000000000000000000000000000000000000000 "6
b00000000000000000000000000000000 "P
0d
b0000000000000000 "%
b000000000 "p
b000000000000 :
b00000000000000000000000000000000 "J
b000 "e
b000 #1
b00000000000000000000000000000000 ~
0h
b00000 "I
b00000 #*
b00000 $
0#(
b000000000000000000000000000000000000000000000000000000000000000 "^
0#=
0.
b00000000000000000000000000000000 "x
b000000000000000000000000000000000000000000000000000000000000000 #"
b00000 "K
b00000000000000000000000000000000 #<
b00 "U
0"A
b00000000000000000000000000000000 ")
b00000000000000000000000000000000 1
b00000 #&
0#9
b00000000000000000000000000000000 +
b00000000000000000000000000000000 "t
b000 "[
b00000000000000000000000000000000 ##
0^
b000000000000000000000000000000000 #'
0A
1":
0"5
b00000000000000000000000000000000 %
$end
#0
b00000000000000000000000000000101 Q
b00101 <
b11111111111111111111111111111011 "t
b00001 "_
b00000000000000000000000000000100 ##
b111111111111111111111111111111011 "v
16
b000000000101 "<
b00001 j
b00000000000000000000000000000101 0
1"S
b01 y
b01 "U
b11111111111111111111111111111011 "#
1#0
b000010000000 "2
b00001 `
1.
b00001 #2
b00001 "I
b00101 #*
b00000000000000000000000000000101 "4
b00000000000000000000000000000101 o
b00000000000000000000000000000101 "h
b00000000000000000000000000000101 #,
b00000000000000000000000000000101 \
1?
b0010011 "b
b00101 #&
1#=
1#(
b00000000000000000000000000000101 "G
1;
b000000000000000000000000000000000000000000000000000000000000101 #"
b00000000000000000000000000000101 "$
b00101 "C
1"Z
b000000000101 c
b00000000000000000000000000000101 1
1"?
1]
1#7
1#/
b00000000000000000000000000000101 t
b00000000010100000000000010010011 B
b00000000000000000000000000000101 %
b000000000101 v
1"|
b1010 '
1#%
1r
b00101 8
b000000000000000000000000000000101 #
b00000000010100000000000010010011 #<
b000000000000000000000000000000100 #'
b00000000010100000000000010010011 "z
b000010000000 :
b00000000000000000000000000000101 "H
b00000000000000000000000000000101 "@
b00000000000000000000000000000101 "+
#1
1n
1"3
1&
1Y
1#9
b00101 #$
1#+
b00001 L
1"D
1U
1d
1"T
1"!
1"F
1"8
1"N
1m
b00000000000000000000000000000101 "O
#6
0"3
0&
0Y
0#9
0"D
0U
0d
0"T
0"!
0"F
0]
0"8
0#(
0"N
0m
0n
#11
1n
b00000000000000000000000000000100 Q
b00100 <
b11111111111111111111111111111100 "t
b00010 "_
b00000000000000000000000000001000 ##
b111111111111111111111111111111100 "v
b000000000100 "<
b00010 j
b00000000000000000000000000000100 0
1d
1"!
1"8
b11111111111111111111111111111100 "#
b000100000000 "2
b00010 `
b00010 #2
1&
b00010 "I
b00100 #*
b00000000000000000000000000000100 "4
b00000000000000000000000000000100 o
b00000000000000000000000000000100 "h
b00000000000000000000000000000100 #,
b00000000000000000000000000000100 \
b00000000000000000000000000000001 "w
b00100 #&
b00000000000000000000000000000100 "G
1m
b000000000000000000000000000000000000000000000000000000000000100 #"
b00000000000000000000000000000100 "$
1#9
b00100 "C
b000000000100 c
b00000000000000000000000000000100 1
1"T
1"N
b00001 "9
b00000000000000000000000000000100 t
b00000000010000000000000100010011 B
b00000000000000000000000000000100 "P
b00000000000000000000000000000100 %
1"3
b000000000100 v
1Y
b00000000000000000000000000000100 "J
1"D
1U
b00100 8
b000000000000000000000000000000100 #
b00000000010000000000000100010011 #<
1"F
b000000000000000000000000000001000 #'
b00000000010000000000000100010011 "z
b000100000000 :
b00000000000000000000000000000100 "r
b00000000000000000000000000000100 "H
b00000000000000000000000000000100 "@
b00000000000000000000000000000100 "+
#16
0"3
0&
0Y
0#9
0"D
0U
0d
0"T
0"!
0"F
0"8
0"N
0m
0n
#21
1n
b11111111111111111111111111111101 "@
b00000000000000000000000000000101 f
b00000000000000000000000000000001 Q
b00001 <
b00000000000000000000000000001001 "t
b00011 "_
b000000000000000000000000000000001010000000000000000000000000000 4
b00000000000000000000000000001100 ##
b000000000000000000000000000001001 "v
b0001 K
b111111111100 "<
b00011 j
b00000000000000000000000000000100 "'
b00000000000000000000000000000001 0
b00 y
1d
1"!
1"8
b00000000000000000000000000001001 "#
1^
b00000000000000000000000000000100 "O
b000111111111 "2
b00011 `
b00011 #2
1&
b00011 "I
b11100 #*
b11111111111111111111111111111100 "4
b00000000000000000000000000000001 o
b11111111111111111111111111111001 "h
b00001 (
b1111111 "`
b11111111111111111111111111111101 #,
b00000000000000000000000000000001 \
b00000000000000000000000000000010 "w
b11100 #&
b00001 "0
b00000000000000000000000000000001 "G
1m
b00001 3
b000000000000000000000000000000000000000000000000000000000000001 #"
b11111111111111111111111111111001 "$
1#9
b00100 #$
b00001 "C
b00000000000000000000000000000101 i
b00010 L
b111111111100 c
b00000000000000000000000000000001 1
1"T
1"N
b00010 "9
b00000000000000000000000000000001 t
b00000000000000000000000000000101 "m
b11111111110000001000000110010011 B
b00000000000000000000000000001000 "P
b11111111111111111111111111111100 %
1"3
b111111111100 v
1Y
b1011 '
b00000000000000000000000000001000 "J
b00000000000000000000000000000101 "~
b00000000000000000000000000000100 "a
b00000000000000000000000000000101 #-
b00001 !
1"D
0#%
1U
b00001 8
b000000000000000000000000000000001 #
b11111111110000001000000110010011 #<
1"F
b000000000000000000000000000001100 #'
b11111111110000001000000110010011 "z
b00001 O
b000111111111 :
b00000000000000000000000000001000 "r
b00000000000000000000000000000001 "H
b00001 #!
b11111111111111111111111111111100 "+
#26
0"3
0&
0Y
0#9
0"D
0U
0d
0"T
0"!
0"F
0"8
0"N
0m
0n
#31
b00000000000000000000000000000101 "+
b00000000000000000000000000000101 "@
b00000000000000000000000000000100 f
b00000000000000000000000000001001 Q
b11111111111111111111111111111111 "t
b00010 "_
b000000000000000000000000000000000000000000000000000000010000000 4
b00000000000000000000000000000101 #8
b00000000000000000000000000010000 ##
b0000000000000101 }
b111111111111111111111111111111111 "v
b0100 K
b000000000001 "<
b00010 j
b000000101 "p
1#4
b01 y
1d
1"!
b00000000000000000000000000000101 #6
1"8
b11111111111111111111111111111111 "#
0^
b00000000000000000000000000000001 "O
b10 u
b00010 `
b000100000000 "2
b00000000000000000000000000000101 C
b0100 "f
b00010 #2
1&
b00000 "I
b00101 #*
b00000000000000000000000000000101 "4
b0100 E
b00000000000000000000000000000001 "h
b00010 (
b0000000 "`
b00001 "K
b00000000000000000000000000000101 #,
b00000000000000000000000000001001 \
b00000000000000000000000000000011 "w
b0110011 "b
b00001 #&
b00010 "0
b00000000000000000000000000000101 V
1m
b0100 P
b010 "s
b00000 3
b00000000000000000000000000000001 "$
1J
1#9
b00001 #$
b000000000000000000000000000000000000000000000000000000000000001 ";
b00000000000000000000000000000100 i
b00011 L
b00100 #3
b00001 "R
b000000000000 c
1"T
0"?
b00000000000000000000000000000101 #5
b000000101 "7
b00000000000000000000000000000101 ""
b000000000000000000000000000000000000000000000000000000000000001 H
0#7
1"N
b00011 "9
b00000000000000000000000000000100 "m
b00000000000100010010000100110011 B
b0000000000000101 -
b00000000000000000000000000001100 "P
b100 #1
b00000000000000000000000000000000 %
1"3
b000000000001 v
1Y
0"|
b1010 '
b00000000000000000000000000001100 "J
1x
b0100 "-
b0100 p
b00001 [
b00000000000000000000000000000100 "~
1>
b00000000000000000000000000000100 #-
b00010 !
1"D
1#%
1U
b00100 @
b000000000000000000000000000001001 #
b00000000000100010010000100110011 #<
1"F
b100 "[
b000000101 "1
b000000000000000000000000000010000 #'
b00000000000100010010000100110011 "z
b00010 O
b000100000000 :
b00000000000000000000000000001100 "r
b0000000000000101 "]
b00001 #)
b00010 #!
1n
#36
0"3
0&
0Y
0#9
0"D
0U
0d
0"T
0"!
0"F
0"8
0"N
0m
0n
#41
b00000000000000000000000000000000 f
b000000000000000000000000000000000000000000000000000000000000000 4
b000000000000000000000000000000000 "v
b00000 j
b000000000 "p
b00000000000000000000000000000000 0
0"S
0#4
b00 y
1"!
b00000000000000000000000000000000 "#
0#0
b00 u
b000000000000 "2
b00000000000000000000000000000000 C
b0000 "f
1&
b00000 #*
b00000000000000000000000000000000 "4
b00000000000000000000000000000000 \
b0000000 "b
b00000 #&
1m
0;
0J
1#9
b00000 "C
b000000000000000000000000000000000000000000000000000000000000000 ";
b00010 L
b00000000000000000000000000000000 1
1"T
1"?
b00000000000000000000000000000000 #5
b000000000 "7
b00000000000000000000000000000000 ""
1"N
0#/
b00000000000000000000000000000000 "m
b000000000000 v
1Y
0x
b0000 "-
0r
1U
b00000 @
b000000000000000000000000000000000 #
1"F
b000000000 "1
b000000000000000000000000000010100 #'
b00000 O
b000000000000 :
b00000000000000000000000000010000 "r
b0000000000000000 "]
b00000000000000000000000000000000 "@
b00000000000000000000000000000000 "+
b00000 #!
b00000000000000000000000000000000 Q
b00000 <
b00000000000000000000000000000000 "t
b00000 "_
b00000000000000000000000000000000 #8
b00000000000000000000000000010100 ##
b0000000000000000 }
b0000 K
06
b000000000000 "<
b00000000000000000000000000000000 "'
1d
b00000000000000000000000000000000 #6
b00 "U
1"8
b00000 `
0.
b00000 #2
b00000000000000000000000000000000 o
1Z
b0000 E
b00000000000000000000000000000000 "h
b00000 (
b00000 "K
b00000000000000000000000000000000 #,
0?
b00000000000000000000000000000100 "w
b00000 "0
b00000000000000000000000000000000 V
0#=
b00000000000000000000000000000000 "G
b0000 P
b000 "s
b000000000000000000000000000000000000000000000000000000000000000 #"
b00000000000000000000000000000000 "$
b00000000000000000000000000000000 i
b00000 #3
b00000 "R
b000000000000000000000000000000000000000000000000000000000000000 H
b00100 "9
b00000000000000000000000000000000 t
b00000000000000000000000000000101 _
b00000000000000000000000000000000 B
b0000000000000000 -
b00000000000000000000000000010000 "P
b000 #1
1"3
1"|
b00000000000000000000000000010000 "J
1"5
b0000 p
b00000 [
b00000000000000000000000000000000 "~
0>
b00000000000000000000000000000000 "a
b00000000000000000000000000000000 #-
b00000 !
1"D
0#%
b00000 8
b00000000000000000000000000000000 #<
b000 "[
b00000000000000000000000000000000 "z
b00000 #)
b00000000000000000000000000000000 "H
1n
#46
0"3
0&
0Y
0#9
0"D
0U
0d
0"T
0"!
0"F
0"8
0"N
0m
0n
#51
1n
b00000000000000000000000000010100 "P
1"3
b00000000000000000000000000011000 ##
1&
1Y
1#9
b00000 #$
0#+
b00000000000000000000000000010100 "J
b00000 L
1"D
b00000000000000000000000000000101 "w
1U
1d
1"T
1"!
1"F
b000000000000000000000000000011000 #'
1"8
1"N
1m
b00000000000000000000000000010100 "r
b00101 "9
b00000000000000000000000000000000 _
b00000000000000000000000000000000 "O
