test_run_dir/DataPath_Test/DataPath.vcd
$date
2023-09-16T10:16+0000
$end
$version
0.2
$end
$comment

$end
$timescale 1ns  $end
$scope module DataPath $end
 $var wire 1 * datamem $end
 $var wire 16 / _regfile_io_datain_T_3 $end
 $var wire 16 0 _datamem_io_datain_T_3 $end
 $var wire 1 2 regfile $end
 $var wire 32 5 io_out $end
 $var wire 9 D _datamem_io_datain_T_6 $end
 $var wire 5 J _alu_io_alu_Op_T $end
 $var wire 32 Q _pc_T_2 $end
 $var wire 32 U _regfile_io_datain_T_9 $end
 $var wire 9 b _regfile_io_datain_T $end
 $var wire 1 n _alu_io_in_A_T $end
 $var wire 16 ", _datamem_io_datain_T_8 $end
 $var wire 1 "H alu $end
 $var wire 9 "J _datamem_io_datain_T_2 $end
 $var wire 16 "P _regfile_io_datain_T_2 $end
 $var wire 1 "V insmem $end
 $var wire 1 "Z checkbranch $end
 $var wire 9 "] _regfile_io_datain_T_5 $end
 $var wire 1 "a _datamem_io_datain_T_5 $end
 $var wire 32 "c _regfile_io_datain_T_12 $end
 $var wire 32 "j _GEN_1 $end
 $var wire 1 "l _datamem_io_datain_T $end
 $var wire 33 "r _pc_T_1 $end
 $var wire 1 #! cu $end
 $var wire 1 #$ clock $end
 $var wire 32 #3 _alu_io_in_A_T_1 $end
 $var wire 16 #C _datamem_io_datain_T_4 $end
 $var wire 1 #G _datamem_io_datain_T_7 $end
 $var wire 16 #N _regfile_io_datain_T_7 $end
 $var wire 32 #U pc $end
 $var wire 9 #[ _regfile_io_datain_T_1 $end
 $var wire 9 #` _datamem_io_datain_T_1 $end
 $var wire 32 #a _pc_T $end
 $var wire 32 #f _pc_T_3 $end
 $var wire 32 #j _GEN_0 $end
 $var wire 1 #s _alu_io_in_B_T $end
 $var wire 1 $$ reset $end
 $var wire 1 $: _datamem_io_datain_T_9 $end
 $var wire 32 $B _datamem_io_datain_T_10 $end
  $scope module regfile $end
   $var wire 1 < _T $end
   $var wire 5 w io_Rs2in $end
   $var wire 1 "' clock $end
   $var wire 1 "> io_Wen $end
   $var wire 32 "M io_Rs2out $end
   $var wire 5 "_ io_Rs1in $end
   $var wire 32 #- io_datain $end
   $var wire 32 #W regFile $end
   $var wire 32 $. io_Rs1out $end
   $var wire 5 $6 io_RD $end
    $scope module regFile $end
     $var wire 32 #k MPORT $end
      $scope module io_Rs1out_MPORT $end
       $var wire 5 " addr $end
       $var wire 1 C en $end
       $var wire 32 "2 data $end
       $var wire 1 "N clk $end
      $upscope $end
      $scope module io_Rs2out_MPORT $end
       $var wire 1 ( clk $end
       $var wire 1 1 en $end
       $var wire 5 #/ addr $end
       $var wire 32 $> data $end
      $upscope $end
      $scope module io_Rs1out_MPORT_1 $end
       $var wire 5 ) addr $end
       $var wire 32 "* data $end
       $var wire 1 "g en $end
       $var wire 1 "o clk $end
      $upscope $end
      $scope module MPORT $end
       $var wire 32 3 data $end
       $var wire 5 ` pipeline_addr_0 $end
       $var wire 1 t clk $end
       $var wire 1 "^ mask $end
       $var wire 32 #7 pipeline_data_0 $end
       $var wire 5 #I addr $end
       $var wire 1 $( pipeline_valid_0 $end
       $var wire 1 $1 valid $end
       $var wire 1 $2 en $end
      $upscope $end
      $scope module io_Rs2out_MPORT_1 $end
       $var wire 1 o clk $end
       $var wire 32 q data $end
       $var wire 1 v en $end
       $var wire 5 $% addr $end
      $upscope $end
    $upscope $end
  $upscope $end
  $scope module datamem $end
   $var wire 32 l memory $end
   $var wire 32 "7 io_addr $end
   $var wire 32 "u io_dataout $end
   $var wire 1 #4 clock $end
   $var wire 1 #@ io_Wen $end
   $var wire 32 $< io_datain $end
    $scope module memory $end
     $var wire 32 #b MPORT $end
      $scope module io_dataout_MPORT $end
       $var wire 5 > addr $end
       $var wire 1 g en $end
       $var wire 32 "= data $end
       $var wire 1 #> clk $end
      $upscope $end
      $scope module io_dataout_MPORT_1 $end
       $var wire 5 B addr $end
       $var wire 32 "K data $end
       $var wire 1 #& clk $end
       $var wire 1 #F en $end
      $upscope $end
      $scope module MPORT $end
       $var wire 32 N data $end
       $var wire 1 O valid $end
       $var wire 32 ~ pipeline_data_0 $end
       $var wire 1 "b clk $end
       $var wire 1 "p mask $end
       $var wire 5 #" addr $end
       $var wire 1 #Y pipeline_valid_0 $end
       $var wire 1 #h en $end
       $var wire 5 #x pipeline_addr_0 $end
      $upscope $end
    $upscope $end
  $upscope $end
  $scope module cu $end
   $var wire 5 $ _GEN_2 $end
   $var wire 32 % io_Imm $end
   $var wire 4 ' _io_func_T_3 $end
   $var wire 23 + _io_Imm_T_24 $end
   $var wire 1 4 io_Imm_hi_lo_1 $end
   $var wire 2 6 _GEN_18 $end
   $var wire 5 7 _GEN_24 $end
   $var wire 31 9 _io_Imm_T_2 $end
   $var wire 32 = _io_Imm_T_27 $end
   $var wire 5 ? _GEN_5 $end
   $var wire 1 @ _io_func_T_14 $end
   $var wire 6 E io_Imm_lo_hi_hi $end
   $var wire 1 F _io_func_T_6 $end
   $var wire 32 G _GEN_68 $end
   $var wire 3 H _GEN_74 $end
   $var wire 3 M _GEN_89 $end
   $var wire 4 P _io_func_T_17 $end
   $var wire 1 T _GEN_62 $end
   $var wire 1 V _T $end
   $var wire 1 X io_dobranch $end
   $var wire 4 Y _io_func_T $end
   $var wire 1 Z _GEN_77 $end
   $var wire 30 ] _io_Imm_T_15 $end
   $var wire 3 ^ _GEN_44 $end
   $var wire 3 _ _GEN_59 $end
   $var wire 5 c _io_Rs1_T $end
   $var wire 4 d _GEN_65 $end
   $var wire 4 f _io_func_T_11 $end
   $var wire 3 h _GEN_23 $end
   $var wire 32 i _GEN_38 $end
   $var wire 3 j _GEN_50 $end
   $var wire 19 m io_Imm_hi $end
   $var wire 2 s _io_func_T_5 $end
   $var wire 32 u _GEN_53 $end
   $var wire 32 x _io_Imm_T_26 $end
   $var wire 32 z _GEN_26 $end
   $var wire 1 { _GEN_32 $end
   $var wire 7 | io_Imm_hi_lo $end
   $var wire 1 } io_func_lo $end
   $var wire 5 "! _io_RD_T $end
   $var wire 1 "" _GEN_47 $end
   $var wire 5 "$ _GEN_11 $end
   $var wire 32 "% _io_Imm_T_14 $end
   $var wire 5 "& _GEN_14 $end
   $var wire 30 "( _io_Imm_T_20 $end
   $var wire 1 "+ io_aluselect $end
   $var wire 20 "- io_Imm_hi_hi_3 $end
   $var wire 5 "1 io_RD $end
   $var wire 9 "3 io_Imm_lo_lo $end
   $var wire 3 "4 _GEN_35 $end
   $var wire 1 "6 _io_func_T_8 $end
   $var wire 1 "9 _GEN_29 $end
   $var wire 2 "@ _io_lengthselect_T $end
   $var wire 1 "C io_Instype $end
   $var wire 1 "E io_MemWrite $end
   $var wire 1 "F _io_func_T_10 $end
   $var wire 5 "G _GEN_64 $end
   $var wire 1 "I _GEN_70 $end
   $var wire 1 "Q _GEN_17 $end
   $var wire 2 "S io_lengthselect $end
   $var wire 31 "W _io_Imm_T_11 $end
   $var wire 5 "Y _GEN_52 $end
   $var wire 32 "[ _GEN_4 $end
   $var wire 4 "\ _io_func_T_13 $end
   $var wire 1 "` io_pcselec $end
   $var wire 5 "d _GEN_67 $end
   $var wire 1 "i _GEN_73 $end
   $var wire 3 "k _GEN_46 $end
   $var wire 5 "m _GEN_49 $end
   $var wire 1 "n _GEN_55 $end
   $var wire 5 "s _GEN_34 $end
   $var wire 3 "t _GEN_61 $end
   $var wire 1 "v _io_func_T_16 $end
   $var wire 1 "w _io_Imm_T $end
   $var wire 1 "x _GEN_28 $end
   $var wire 3 "z _GEN_76 $end
   $var wire 1 ## _GEN_58 $end
   $var wire 5 #% _GEN_22 $end
   $var wire 4 #' io_Imm_lo_hi_lo $end
   $var wire 5 #( _GEN_37 $end
   $var wire 1 #) _GEN_43 $end
   $var wire 1 #* _io_pcselec_T $end
   $var wire 1 #. _GEN_16 $end
   $var wire 8 #0 io_Imm_hi_lo_2 $end
   $var wire 1 #1 _io_func_T_4 $end
   $var wire 30 #2 _io_Imm_T_19 $end
   $var wire 5 #5 _GEN_25 $end
   $var wire 23 #: _io_Imm_T_25 $end
   $var wire 5 #; io_Rs2 $end
   $var wire 2 #< io_wbselect $end
   $var wire 31 #? _io_Imm_T_10 $end
   $var wire 1 #A _GEN_19 $end
   $var wire 31 #D _io_Imm_T_3 $end
   $var wire 3 #E _io_func_T_7 $end
   $var wire 12 #J io_Imm_lo $end
   $var wire 1 #K _GEN_75 $end
   $var wire 7 #M Opcode $end
   $var wire 3 #O _GEN_13 $end
   $var wire 3 #P _GEN_6 $end
   $var wire 4 #Q _io_func_T_15 $end
   $var wire 30 #V _io_Imm_T_16 $end
   $var wire 32 #Z _GEN_0 $end
   $var wire 1 #\ _GEN_9 $end
   $var wire 11 #^ io_Imm_hi_hi_hi_1 $end
   $var wire 1 #_ _GEN_78 $end
   $var wire 3 #c io_func_hi $end
   $var wire 1 #d _GEN_63 $end
   $var wire 2 #e _GEN_57 $end
   $var wire 5 #l _GEN_51 $end
   $var wire 1 #o _GEN_39 $end
   $var wire 5 #r _GEN_66 $end
   $var wire 1 #t _io_func_T_12 $end
   $var wire 5 #v io_Rs1 $end
   $var wire 1 #w io_btype $end
   $var wire 1 #y _GEN_45 $end
   $var wire 2 #{ _GEN_72 $end
   $var wire 5 #} _io_Rs2_T $end
   $var wire 2 $! _GEN_30 $end
   $var wire 1 $" _GEN_60 $end
   $var wire 1 $# _GEN_69 $end
   $var wire 1 $& _GEN_54 $end
   $var wire 32 $) _GEN_12 $end
   $var wire 4 $* io_btypefun $end
   $var wire 1 $+ _GEN_48 $end
   $var wire 1 $, io_Imm_lo_hi_1 $end
   $var wire 1 $0 _GEN_33 $end
   $var wire 3 $4 _io_func_T_9 $end
   $var wire 5 $5 io_func $end
   $var wire 1 $8 io_jump $end
   $var wire 5 $9 _GEN_36 $end
   $var wire 28 $; _io_Imm_T_21 $end
   $var wire 3 $= _GEN_21 $end
   $var wire 5 $? _GEN_8 $end
   $var wire 2 $@ _GEN_42 $end
   $var wire 32 $A io_ins $end
   $var wire 1 $C io_RegWrite $end
  $upscope $end
  $scope module insmem $end
   $var wire 32 ! imem $end
   $var wire 32 L io_inst $end
   $var wire 1 "8 clock $end
   $var wire 32 #6 io_addr $end
    $scope module imem $end
      $scope module io_inst_MPORT $end
       $var wire 1 , en $end
       $var wire 1 "5 clk $end
       $var wire 5 "q addr $end
       $var wire 32 #p data $end
      $upscope $end
    $upscope $end
  $upscope $end
  $scope module alu $end
   $var wire 33 # _sum_T $end
   $var wire 32 . _io_out_T_5 $end
   $var wire 63 8 shitfl $end
   $var wire 63 : _io_out_T_26 $end
   $var wire 1 A _io_out_T_11 $end
   $var wire 1 I _cmpU_T_2 $end
   $var wire 1 K _io_out_T_8 $end
   $var wire 1 R _io_out_T_14 $end
   $var wire 63 S _io_out_T_20 $end
   $var wire 63 a _io_out_T_23 $end
   $var wire 32 e sum $end
   $var wire 32 k shiftrl $end
   $var wire 32 r _io_out_T_17 $end
   $var wire 32 y _sum_T_1 $end
   $var wire 1 "# _io_out_T_7 $end
   $var wire 1 "0 _io_out_T_1 $end
   $var wire 4 ": io_alu_Op $end
   $var wire 1 "< _io_out_T_4 $end
   $var wire 32 "? _GEN_0 $end
   $var wire 63 "B _io_out_T_22 $end
   $var wire 2 "D cmp $end
   $var wire 32 "L _sub_T_1 $end
   $var wire 32 "O _io_out_T_16 $end
   $var wire 32 "R _io_out_T_10 $end
   $var wire 32 "T _io_out_T_19 $end
   $var wire 32 "X io_in_B $end
   $var wire 32 "f _cmpU_T_1 $end
   $var wire 63 "h _io_out_T_25 $end
   $var wire 1 "y _io_out_T $end
   $var wire 32 "{ _io_out_T_13 $end
   $var wire 1 "} _io_out_T_3 $end
   $var wire 32 #+ io_out $end
   $var wire 32 #9 shiftrA $end
   $var wire 2 #= cmpU $end
   $var wire 1 #B _io_out_T_6 $end
   $var wire 32 #L _io_out_T_9 $end
   $var wire 63 #R _io_out_T_21 $end
   $var wire 32 #S _io_out_T_15 $end
   $var wire 32 #X _cmpU_T $end
   $var wire 32 #g sub $end
   $var wire 33 #i _sub_T $end
   $var wire 63 #m _io_out_T_24 $end
   $var wire 32 #q _io_out_T_18 $end
   $var wire 32 #u io_in_A $end
   $var wire 1 #z _cmp_T $end
   $var wire 5 $' shamt $end
   $var wire 32 $- _io_out_T_12 $end
   $var wire 1 $7 _io_out_T_2 $end
  $upscope $end
  $scope module checkbranch $end
   $var wire 1 & _io_doBranch_T_14 $end
   $var wire 32 - _bgeu_T_1 $end
   $var wire 1 ; _io_doBranch_T_8 $end
   $var wire 1 W _io_doBranch_T_2 $end
   $var wire 1 [ io_isBtype $end
   $var wire 32 \ io_in_B $end
   $var wire 1 p _io_doBranch_T_5 $end
   $var wire 32 ") io_in_A $end
   $var wire 1 ". _io_doBranch_T $end
   $var wire 1 "/ _io_doBranch_T_10 $end
   $var wire 1 "; _io_doBranch_T_13 $end
   $var wire 32 "A _bgeu_T $end
   $var wire 1 "U _io_doBranch_T_7 $end
   $var wire 1 "e blt $end
   $var wire 1 "| _io_doBranch_T_1 $end
   $var wire 1 "~ _io_doBranch_T_4 $end
   $var wire 1 #, bltu $end
   $var wire 1 #8 io_doBranch $end
   $var wire 1 #H bgeu $end
   $var wire 1 #T _io_doBranch_T_3 $end
   $var wire 1 #] _io_doBranch_T_12 $end
   $var wire 1 #n Beq $end
   $var wire 1 #| _io_doBranch_T_6 $end
   $var wire 4 #~ io_fun3 $end
   $var wire 1 $/ _io_doBranch_T_9 $end
   $var wire 1 $3 _io_doBranch_T_11 $end
  $upscope $end
$upscope $end
$enddefinitions $end
$dumpvars
b0000 #~
b0000000000000000000000000000000 "W
0o
0R
b00000 J
b00000000000000000000000000000000 "j
b00000000000000000000000000000000 #6
b00000 #;
b00000000000000000000000000000000 r
b00000000000000000000000000000000 "M
0#1
0#t
0"v
0$8
b0000 f
b00000000000000000000000000000000 Q
b000000000000000000000000000000 #2
b0000000000000000000 m
b000 $=
b000 "4
0#!
0"#
b00000000000000000000000000000000 #Z
b00000000000000000000000 +
b00000000000000000000000000000000 "*
b000000000000000000000000000000 "(
0"n
0$0
0"Q
0"<
b0000000000000000 0
b00000000000000000000000000000000 #k
b00000000000000000000000000000000 "u
0@
b0000000000000000000000000000 $;
b00000000000000000000000000000000 "X
b00000000000000000000000000000000 #9
b0000000 |
b00 $@
b000000000000000000000000000000 #V
b00000 #l
b000 H
0#w
0$C
0"l
b00000 "Y
b00000000000000000000000000000000 q
0$&
0p
b00000 #}
0#s
0"}
0"`
0#,
b00000000000000000000000000000000 e
0O
0"C
0#$
0#A
0$"
0".
b0000 P
b00000000000000000000000000000000 3
b00000000000000000000000000000000 $)
b00 #<
b0000 "\
b00000000000000000000000000000000 "c
b000 h
b00000000000000000000000000000000 #j
b000000000 b
b00000 7
0"o
0$1
b00000 "G
b00000 #(
b00000000000000000000000000000000 "%
b00000000000000000000000000000000 -
b00000000000000000000000000000000 #W
b000 "t
0;
b00000000000000000000000000000000 #f
b00000 "m
0Z
0"N
b00000 "&
0"9
b00000000000 #^
b00 #=
0#@
b00000 c
0"~
b00000000000000000000000000000000 "f
0#_
b0000000000000000 #N
b00000 )
b0000 #Q
b00000000000000000000000000000000 #u
b00 6
b00000000000000000000000000000000 #X
b00000000000000000000000000000000 .
b00000 B
0#>
0"+
b000000000000000000000000000000000000000000000000000000000000000 "B
b000000000000000000000000000000000000000000000000000000000000000 S
b000000000 "3
b00000000000000000000000000000000 "A
b00000000000000000000 "-
0n
0#.
b000000000000 #J
b00000000000000000000000000000000 =
b00000000000000000000000000000000 #g
0<
b00000000000000000000000000000000 "T
b00000000000000000000000000000000 "?
b00000000000000000000000000000000 "7
b0000000000000000000000000000000 9
0#\
b00 s
0"I
0#*
b00000 w
b00000000000000000000000000000000 N
b000000000000000000000000000000000 #i
b00 "D
b000 #c
0#o
0"y
b00000000000000000000000000000000 ~
0}
b00000 $
0$3
1,
b00000000000000000000000000000000 L
0K
1"p
b00000000 #0
b00000 $9
b00000000000000000000000000000000 z
0$/
0";
b0000000000000000 /
0*
b00000000000000000000000000000000 #U
b00000 "
b0000000 #M
b000000000000000000000000000000000000000000000000000000000000000 #R
b000000000 #`
b00 #{
0X
0C
b0000 '
0""
b00000 "$
0&
b0000000000000000 #C
b000000000000000000000000000000000000000000000000000000000000000 a
0#z
0"|
b00000 #5
0"g
b00000000000000000000000000000000 l
0V
0#H
b00000000000000000000000000000000 "2
0#]
1"^
b00000 #x
b000 #E
0#n
0"x
0#Y
0$:
b00000 $'
0g
0"F
b00000000000000000000000000000000 $A
b11011110101011011100000010110111 !
0[
b00000 #v
b00000000000000000000000000000000 #q
b0000 ":
0F
b00000 >
b00000 $%
b0000000000000000 "P
b000000000000000000000000000000000000000000000000000000000000000 :
b00 #e
b0000 $*
0W
b00000 #r
b00000 $6
b00000 "_
0#h
b0000000000000000000000000000000 #?
0#K
0$,
0"U
b00000000000000000000000000000000 "R
b00000000000000000000000000000000 #3
b00000000000000000000000000000000 "=
0v
0"8
b00000000000000000000000 #:
0#y
0#d
b00000000000000000000000000000000 #a
b00000000000000000000000000000000 $B
b000000000 D
0#G
0$(
b00000000000000000000000000000000 k
b00000000000000000000000000000000 #L
b00000000000000000000000000000000 $-
b00000 "!
0"w
b0000000000000000000000000000000 #D
0{
0"Z
0"E
0#&
0I
04
b00000000000000000000000000000000 "L
b00000000000000000000000000000000 i
b00000000000000000000000000000000 #-
0"V
b00000000000000000000000000000000 #p
b00000000000000000000000000000000 $<
0(
0$7
b00000000000000000000000000000000 #S
b000000000000000000000000000000000000000000000000000000000000000 #m
b000 M
0#|
b00000 "s
b00000 $5
b000 $4
b0000 Y
0"i
0$+
b000000 E
b00000 #"
b000000000000000000000000000000000 #
b000 ^
b0000 #'
b000 #O
0"e
b00000000000000000000000000000000 U
0T
0"H
0#)
b00000 "q
b00000000000000000000000000000000 #b
b00000000000000000000000000000000 $.
b00000000000000000000000000000000 "O
b0000000000000000 ",
b000000000000000000000000000000000 "r
0"a
0#B
0$#
b00000 #/
b00000 "1
0"/
0"'
b00000000000000000000000000000000 "K
b0000 d
b00000000000000000000000000000000 y
0#8
0##
b00000000000000000000000000000000 \
b00000 #%
b00000000000000000000000000000000 G
b00000000000000000000000000000000 "{
01
b000000000000000000000000000000000000000000000000000000000000000 8
b000000000 "J
0$2
b00000000000000000000000000000000 u
0t
0#4
0">
0"6
b000000000 #[
b000000000 "]
b000 _
b000 #P
b00000 `
b00000000000000000000000000000000 #7
b000000000000000000000000000000000000000000000000000000000000000 "h
b00 "@
b00 $!
1#F
b000 "k
02
b00000000000000000000000000000000 $>
b00000 ?
b00000 "d
0"b
0$$
b00000000000000000000000000000000 #+
0"0
b00000000000000000000000000000000 5
b00 "S
b00000 $?
b00000 #I
0#T
b00000000000000000000000000000000 "[
b00000000000000000000000000000000 x
b00000000000000000000000000000000 ")
b000000000000000000000000000000 ]
b000 j
b000 "z
0A
0"5
b00000000000000000000000000000000 %
$end
#0
b1000 f
14
1#n
b00000000000000000000000000000001 #f
b1000 #Q
1$2
1">
b11011110101011011100000000000000 y
b00001 "!
b01010 #}
b11011110101011011100000000000000 G
b11011110101011011100000000000000 "j
1#.
1I
1$C
b0110111 #M
1"l
1$&
b11011100 #0
b11011110101011011100000000000000 "O
b11011110101011011100000000000000 u
1C
b11011110101011011100000000000000 "f
1&
b11011110101011011100000010110111 $A
1$$
b111111111111110111000011110101 "(
b1111111111111111111 m
1#\
b11011110101011011100000000000000 "{
b1111111111111111111110111100001 #?
b111111111111111111111101111000 #V
b11011110101011011100000000000000 5
b11011110101011011100000000000000 "X
b11011110101011011100000010110111 L
1$1
b11011 c
b00100001010100100100000000000000 #g
11
b110111101010 #J
1"i
b11011110101011011100000000000000 "?
b11011110101011011100000000000000 "7
b111111111111111111111101111000 ]
b11011110101011011100000000000000 #a
b11111111111110111101010 +
b1101111 |
b00001 "m
b01 #e
b1001 Y
b1011 '
b11011110101011011100000000000000 x
1#|
b11011110101011011100 "-
1"x
b00000000000000000000000000000001 "c
b1111111111111111111110111101010 #D
b111011110101011011100000000000000 #
1"F
b00001 "1
b11011110101011011100000010110111 #p
b111111111111111111111111111111111011110101011011100000000000000 :
b000000000000000000000000000000001 "r
b11011110101011011100000000000000 #S
1"+
b00000000000000000000000000000001 Q
1<
b00001 $6
b01 $!
b11011110101011011100000000000000 #j
b1111111111111111111110111100001 "W
1##
1}
b11111111111111111111110111100000 "%
b01 6
b11111111111110111101010 #:
b111111111111110111000011110101 #2
1"Q
b01 #{
b101111 E
b11111111111 #^
b00001 $?
b11011110101011011100000000000000 =
b00001 #I
1".
1"w
1#o
b1111111111111101110000111101 $;
b11011110101011011100000000000000 #Z
b1111111111111111111110111101010 9
b00001 $
b1000 "\
b00001 "G
1"y
b01 #=
b1000 P
b00001 "s
b11011110101011011100000000000000 3
1#s
b00001 "$
b11011110101011011100000000000000 i
b11011110101011011100000000000000 z
b11011110101011011100000000000000 e
b000100001010100100100000000000000 #i
b11011110101011011100000000000000 $-
1"9
b100 #c
b11011110101011011100000000000000 %
b011110101 "3
b11011110101011011100000000000000 $)
1#H
b11011110101011011100000000000000 #+
1p
b01 $@
1$#
b00100001010100100100000000000000 "L
1"a
b11011110101011011100000000000000 #-
b00001 #%
b11011110101011011100000000000000 "[
b01 #<
1#)
#1
b00001 `
1$(
1#$
1o
1"5
1(
1"'
1"o
1#4
1"b
1#&
1"8
b11011110101011011100000000000000 #7
1"N
1#>
1t
#6
0#$
0o
0"5
0(
0"'
0"o
0#4
0$$
0"b
0#&
0"8
0"N
0#>
0t
#11
b0000 f
0#n
b00000000000000000000000000000010 #f
b0000 #Q
1#4
b11011110101011011011111011101111 y
b01111 #}
b11111111111111111111111011101111 G
1$,
b11011110101011011011111011101111 "j
0#.
b0010011 #M
b11011110101011011100000000000000 $.
0$&
b00001000 #0
b00100001010100100011111011101111 "O
b00000000000000000000000000000000 u
b11011110101011011100000000000000 "2
b11111111111111111111111011101111 "f
0&
b11011110101011011100000000000000 #u
b11101110111100001000000010010011 $A
1"b
b00001 "
1#&
b111111111111000010001101110111 "(
0#\
b11111111111111111111111011101111 "{
b1111111111111111111111011100001 #?
b111111111111111111111110111000 #V
b11011110101011011011111011101111 5
b11111111111111111111111011101111 "X
1#$
b11111111111111111011110101011011 #9
b11101110111100001000000010010011 L
1"o
b00001 c
b11011110101011011100000100010001 #g
b111011101111 #J
0"i
b11011110101011011011111011101111 "?
b11011110101011011011111011101111 "7
b111111111111111111111110111000 ]
b11011110101011011011111011101111 #a
b11111111111111011101111 +
1"N
b1110111 |
b00000 "m
1#z
b00 #e
b0001 Y
b11101110111100001000000000000000 x
0#|
b11101110111100001000 "-
b00001 #v
0"x
b00000000000000000000000000000010 "c
b1111111111111111111111011101111 #D
b111011110101011011011111011101111 #
0"F
b11101110111100001000000010010011 #p
b111111111111111111111111111111111011110101011011011111011101111 :
b000000000000000000000000000000010 "r
1#>
b00100001010100100011111011101111 #S
0"+
b00001 #r
b00000000000000000000000000000010 Q
b11011110101011011011111011101111 #j
b00000000000000000000000000000001 #U
b00 $!
b00001 "_
b1111111111111111111111011100001 "W
0##
b11111111111111111111111011100000 "%
b00 6
b11111111111111011101111 #:
1"'
b00000000000000000000000000000001 #6
1"8
b00000000000000011011110101011011 .
b111111111111000010001101110111 #2
0"Q
1o
b110111 E
b00000 $?
b11101110111100001000000000000000 =
1(
b11011110101011011100000000000000 #X
b00000000000000011011110101011011 k
0#o
b1111111111110000100011011101 $;
b00000000000000000000000000000000 #Z
b1111111111111111111111011101111 9
b00000 $
b0000 "\
b11011110101011011100000000000000 "*
b0000 P
b00000 "s
b11011110101011011011111011101111 3
b11011110101011011100000000000000 "A
b01111 #"
b00000 "$
b00000000000000000000000000000000 i
b00000000000000000000000000000001 #3
b11011110101011011100000000000000 "R
b00001 "q
b00000000000000000000000000000000 z
b11011110101011011011111011101111 e
b111011110101011011100000100010001 #i
b11111111111111111111111011101111 $-
b11011110101011011100000000000000 #L
0"9
1t
b000 #c
b01111 B
b01111 $'
1"e
b11111111111111111111111011101111 %
b101110111 "3
b00000000000000000000000000000000 $)
b11011110101011011011111011101111 #+
1"5
0p
b00 $@
b01111 >
b00001 )
b11011110101011011100000100010001 "L
b11011110101011011011111011101111 #-
b00000 #%
b01 "D
b111111111111111111011110101011011100000000000000000000000000000 8
b00000000000000000000000000000000 "[
b11011110101011011100000000000000 ")
1W
0#)
#16
0#4
0"b
0#&
0#$
0o
0"8
0"5
0(
0"N
0#>
0"'
0"o
0t
#21
04
1#n
b00000000000000000000000000000011 #f
0$2
1#4
0">
b00000000000000000000000000000000 y
b00000 "!
b00000 #}
b00000000000000000000000000000000 G
0$,
b00000000000000000000000000000000 "j
0I
0$C
b0000000 #M
0"l
b00000000000000000000000000000000 $.
b00000000 #0
b00000000000000000000000000000000 "O
b00000000000000000000000000000000 "2
0C
b00000000000000000000000000000000 "f
1&
b00000000000000000000000000000000 #u
b00000000000000000000000000000000 $A
1"b
b00000 "
1#&
b000000000000000000000000000000 "(
b0000000000000000000 m
b00000000000000000000000000000000 "{
b0000000000000000000000000000000 #?
b000000000000000000000000000000 #V
b00000000000000000000000000000000 5
b00000000000000000000000000000000 "X
1#$
b00000000000000000000000000000000 #9
b00000000000000000000000000000000 L
1"o
0$1
b00000 c
b00000000000000000000000000000000 #g
01
b000000000000 #J
b00000000000000000000000000000000 "?
b00000000000000000000000000000000 "7
b000000000000000000000000000000 ]
b00000000000000000000000000000000 #a
b00000000000000000000000 +
1"N
b0000000 |
1v
0#z
b0000 Y
b1010 '
b00000000000000000000000000000000 x
1#|
b00000000000000000000 "-
b00000 #v
b00000000000000000000000000000011 "c
b0000000000000000000000000000000 #D
b000000000000000000000000000000000 #
b00000 "1
b00000000000000000000000000000000 #p
b000000000000000000000000000000000000000000000000000000000000000 :
b000000000000000000000000000000011 "r
1#>
b00000000000000000000000000000000 #S
b00000 #r
b00000000000000000000000000000011 Q
0<
b00000000000000000000000000000010 #U
b00000 "_
b00000 $6
b00000000000000000000000000000000 #j
b0000000000000000000000000000000 "W
0}
b00000000000000000000000000000000 "%
b00000000000000000000000 #:
1"'
b00000000000000000000000000000010 #6
1"8
b00000000000000000000000000000000 .
b000000000000000000000000000000 #2
b00 #{
1o
b000000 E
b00000000000 #^
b00000 #I
b00000000000000000000000000000000 =
1(
0"w
b00000000000000000000000000000000 #X
b00000000000000000000000000000000 k
b0000000000000000000000000000 $;
b0000000000000000000000000000000 9
b00 #=
b00000 "G
b00000000000000000000000000000000 "*
b00000000000000000000000000000000 3
b00000000000000000000000000000000 "A
b00000 #"
b00000000000000000000000000000010 #3
b00000000000000000000000000000000 "R
b00010 "q
b00000000000000000000000000000000 e
b000000000000000000000000000000000 #i
b00000000000000000000000000000000 $-
b11011110101011011011111011101111 #7
b00000000000000000000000000000000 #L
1t
b01111 #x
b00000 B
b00000 $'
0"e
b00000000000000000000000000000000 %
b000000000 "3
1"g
b00000000000000000000000000000000 #+
1"5
1p
b00000 >
b00000 )
0$#
b00000000000000000000000000000000 "L
b00000000000000000000000000000000 #-
b00 "D
b000000000000000000000000000000000000000000000000000000000000000 8
b00 #<
b00000000000000000000000000000000 ")
0W
#26
0#4
0"b
0#&
0#$
0o
0"8
0"5
0(
0"N
0#>
0"'
0"o
0t
#31
b00000000000000000000000000000100 Q
b00000 `
b00000000000000000000000000000011 #U
0$(
1#$
1o
1"5
1(
1"'
1"o
b00000000000000000000000000000011 #3
b00000000000000000000000000000100 #f
1#4
1"b
b00011 "q
1#&
b00000000000000000000000000000100 "c
b00000000000000000000000000000011 #6
1"8
b00000000000000000000000000000000 #7
b000000000000000000000000000000100 "r
1#>
1"N
1t
b00000 #x
#36
0#4
0"b
0#&
0#$
0o
0"8
0"5
0(
0"N
0#>
0"'
0"o
0t
#41
b00000000000000000000000000000101 Q
b00000000000000000000000000000100 #U
1#$
1o
1"5
1(
1"'
1"o
b00000000000000000000000000000100 #3
b00000000000000000000000000000101 #f
1#4
1"b
b00100 "q
1#&
b00000000000000000000000000000101 "c
b00000000000000000000000000000100 #6
1"8
b000000000000000000000000000000101 "r
1#>
1"N
1t
#46
0#4
0"b
0#&
0#$
0o
0"8
0"5
0(
0"N
0#>
0"'
0"o
0t
#51
b00000000000000000000000000000110 Q
b00000000000000000000000000000101 #U
1#$
1o
1"5
1(
1"'
1"o
b00000000000000000000000000000101 #3
b00000000000000000000000000000110 #f
1#4
1"b
b00101 "q
1#&
b00000000000000000000000000000110 "c
b00000000000000000000000000000101 #6
1"8
b000000000000000000000000000000110 "r
1#>
1"N
1t
#56
0#4
0"b
0#&
0#$
0o
0"8
0"5
0(
0"N
0#>
0"'
0"o
0t
#61
b00000000000000000000000000000111 Q
b00000000000000000000000000000110 #U
1#$
1o
1"5
1(
1"'
1"o
b00000000000000000000000000000110 #3
b00000000000000000000000000000111 #f
1#4
1"b
b00110 "q
1#&
b00000000000000000000000000000111 "c
b00000000000000000000000000000110 #6
1"8
b000000000000000000000000000000111 "r
1#>
1"N
1t
