test_run_dir/DataPath_Test/DataPath.vcd
$date
2023-09-10T20:08+0000
$end
$version
0.2
$end
$comment

$end
$timescale 1ns  $end
$scope module DataPath $end
 $var wire 1 ) datamem $end
 $var wire 9 , _regfile_io_datain_T_3 $end
 $var wire 9 - _datamem_io_datain_T_3 $end
 $var wire 1 / regfile $end
 $var wire 32 1 io_out $end
 $var wire 1 = _datamem_io_datain_T_6 $end
 $var wire 5 ? _alu_io_alu_Op_T $end
 $var wire 9 U _regfile_io_datain_T $end
 $var wire 1 ". alu $end
 $var wire 1 "/ _datamem_io_datain_T_2 $end
 $var wire 1 "7 insmem $end
 $var wire 16 ": _regfile_io_datain_T_5 $end
 $var wire 16 "> _datamem_io_datain_T_5 $end
 $var wire 9 "G _datamem_io_datain_T $end
 $var wire 1 "V cu $end
 $var wire 1 "Z clock $end
 $var wire 1 "v _datamem_io_datain_T_4 $end
 $var wire 32 "z _datamem_io_datain_T_7 $end
 $var wire 32 #$ _regfile_io_datain_T_7 $end
 $var wire 1 #+ pc $end
 $var wire 16 #. _regfile_io_datain_T_1 $end
 $var wire 16 #0 _datamem_io_datain_T_1 $end
 $var wire 1 #? _alu_io_in_B_T $end
 $var wire 1 #K reset $end
  $scope module regfile $end
   $var wire 1 7 _T $end
   $var wire 5 h io_Rs2in $end
   $var wire 1 v clock $end
   $var wire 1 "( io_Wen $end
   $var wire 32 "2 io_Rs2out $end
   $var wire 5 "= io_Rs1in $end
   $var wire 32 "a io_datain $end
   $var wire 32 #* regFile $end
   $var wire 32 #R io_Rs1out $end
   $var wire 5 #Y io_RD $end
    $scope module regFile $end
     $var wire 32 #9 MPORT $end
      $scope module io_Rs1out_MPORT $end
       $var wire 5 ! addr $end
       $var wire 1 ; en $end
       $var wire 32 } data $end
       $var wire 1 "1 clk $end
      $upscope $end
      $scope module io_Rs1out_MPORT_1 $end
       $var wire 5 ' addr $end
       $var wire 32 y data $end
       $var wire 1 "D en $end
       $var wire 1 "H clk $end
      $upscope $end
      $scope module io_Rs2out_MPORT $end
       $var wire 1 ( clk $end
       $var wire 1 . en $end
       $var wire 5 "f addr $end
       $var wire 32 #_ data $end
      $upscope $end
      $scope module MPORT $end
       $var wire 32 0 data $end
       $var wire 5 Q pipeline_addr_0 $end
       $var wire 1 d clk $end
       $var wire 1 "< mask $end
       $var wire 32 "k pipeline_data_0 $end
       $var wire 5 "} addr $end
       $var wire 1 #O pipeline_valid_0 $end
       $var wire 1 #T valid $end
       $var wire 1 #W en $end
      $upscope $end
      $scope module io_Rs2out_MPORT_1 $end
       $var wire 1 _ clk $end
       $var wire 32 ` data $end
       $var wire 1 g en $end
       $var wire 5 #M addr $end
      $upscope $end
    $upscope $end
  $upscope $end
  $scope module datamem $end
   $var wire 32 ] memory $end
   $var wire 32 "% io_addr $end
   $var wire 32 "P io_dataout $end
   $var wire 1 "j clock $end
   $var wire 1 "q io_Wen $end
   $var wire 32 #a io_datain $end
    $scope module memory $end
     $var wire 32 #1 MPORT $end
      $scope module io_dataout_MPORT $end
       $var wire 5 8 addr $end
       $var wire 1 Y en $end
       $var wire 32 ") data $end
       $var wire 1 "p clk $end
      $upscope $end
      $scope module io_dataout_MPORT_1 $end
       $var wire 5 < addr $end
       $var wire 32 "0 data $end
       $var wire 1 "] clk $end
       $var wire 1 "x en $end
      $upscope $end
      $scope module MPORT $end
       $var wire 32 B data $end
       $var wire 1 D valid $end
       $var wire 32 o pipeline_data_0 $end
       $var wire 1 "A clk $end
       $var wire 1 "J mask $end
       $var wire 5 "W addr $end
       $var wire 1 #- pipeline_valid_0 $end
       $var wire 1 #6 en $end
       $var wire 5 #E pipeline_addr_0 $end
      $upscope $end
    $upscope $end
  $upscope $end
  $scope module pc $end
   $var wire 1 k reset $end
   $var wire 32 "e counter $end
   $var wire 32 #2 io_nextaddr $end
   $var wire 32 #D _counter_T_1 $end
   $var wire 33 #H _counter_T $end
   $var wire 1 #b clock $end
  $upscope $end
  $scope module cu $end
   $var wire 32 % io_Imm $end
   $var wire 5 & _GEN_2 $end
   $var wire 3 2 _GEN_24 $end
   $var wire 5 3 _GEN_18 $end
   $var wire 12 5 _io_Imm_T_2 $end
   $var wire 1 L _T $end
   $var wire 4 N _io_func_T $end
   $var wire 5 V _io_Rs1_T $end
   $var wire 1 n io_func_lo $end
   $var wire 5 p _io_RD_T $end
   $var wire 12 r _GEN_11 $end
   $var wire 12 u _GEN_20 $end
   $var wire 5 w _GEN_7 $end
   $var wire 1 z io_aluselect $end
   $var wire 5 ~ io_RD $end
   $var wire 2 "* _io_lengthselect_T $end
   $var wire 1 "+ io_Instype $end
   $var wire 1 "- io_MemWrite $end
   $var wire 3 "4 _GEN_17 $end
   $var wire 2 "6 io_lengthselect $end
   $var wire 12 "9 _GEN_4 $end
   $var wire 12 "O _io_Imm_T $end
   $var wire 1 "\ _GEN_22 $end
   $var wire 5 "c _GEN_16 $end
   $var wire 5 "h _GEN_10 $end
   $var wire 5 "n io_Rs2 $end
   $var wire 1 "o io_wbselect $end
   $var wire 5 "r _GEN_19 $end
   $var wire 5 "s _GEN_3 $end
   $var wire 7 #! io_Imm_lo $end
   $var wire 7 ## Opcode $end
   $var wire 1 #% _GEN_13 $end
   $var wire 3 #& _GEN_6 $end
   $var wire 5 #, _GEN_0 $end
   $var wire 5 #/ _GEN_9 $end
   $var wire 3 #3 io_func_hi $end
   $var wire 5 #B io_Rs1 $end
   $var wire 5 #G _io_Rs2_T $end
   $var wire 3 #U _GEN_33 $end
   $var wire 5 #Z io_func $end
   $var wire 1 #` _GEN_21 $end
   $var wire 3 #c _GEN_8 $end
   $var wire 3 #f _GEN_15 $end
   $var wire 32 #g io_ins $end
   $var wire 1 #h io_RegWrite $end
  $upscope $end
  $scope module insmem $end
   $var wire 32 " imem $end
   $var wire 32 A io_inst $end
   $var wire 1 "$ clock $end
   $var wire 32 "l io_addr $end
   $var wire 32 #8 _io_inst_T $end
    $scope module imem $end
      $scope module io_inst_MPORT $end
       $var wire 1 * en $end
       $var wire 1 "" clk $end
       $var wire 5 "I addr $end
       $var wire 32 #= data $end
      $upscope $end
    $upscope $end
  $upscope $end
  $scope module alu $end
   $var wire 24 # _shitfl_T_12 $end
   $var wire 1 $ _sum_T $end
   $var wire 1 + _io_out_T_5 $end
   $var wire 32 4 shitfl $end
   $var wire 32 6 _io_out_T_26 $end
   $var wire 32 9 _io_out_T_11 $end
   $var wire 16 : _shin_T_5 $end
   $var wire 32 > _sum_T_2 $end
   $var wire 1 @ _io_out_T_8 $end
   $var wire 32 C _io_out_T_32 $end
   $var wire 1 E _io_out_T_14 $end
   $var wire 32 F _shitfl_T_23 $end
   $var wire 1 G _io_out_T_20 $end
   $var wire 32 H _io_out_T_35 $end
   $var wire 32 I _io_out_T_29 $end
   $var wire 16 J _shitfl_T_2 $end
   $var wire 32 K _shitfl_T_38 $end
   $var wire 32 M _shin_T_8 $end
   $var wire 31 O _shitfl_T_44 $end
   $var wire 31 P _shin_T_43 $end
   $var wire 28 R _shin_T_25 $end
   $var wire 32 S _io_out_T_23 $end
   $var wire 32 T _shitfl_T_47 $end
   $var wire 32 W sum $end
   $var wire 32 X _shin_T_46 $end
   $var wire 1 Z shiftr_hi $end
   $var wire 30 [ _shitfl_T_32 $end
   $var wire 32 \ _shitfl_T_5 $end
   $var wire 33 ^ _shiftr_T_3 $end
   $var wire 1 a _io_out_T_17 $end
   $var wire 32 b _shin_T_19 $end
   $var wire 24 c _shitfl_T_14 $end
   $var wire 32 e _shitfl_T_8 $end
   $var wire 32 f _shin_T_34 $end
   $var wire 32 i _shin_T_49 $end
   $var wire 33 j _sum_T_1 $end
   $var wire 24 l _shin_T_13 $end
   $var wire 32 m _shitfl_T_35 $end
   $var wire 1 q _io_out_T_7 $end
   $var wire 32 s _shin_T_28 $end
   $var wire 32 t rem $end
   $var wire 33 x _sum_T_4 $end
   $var wire 32 { _io_out_T_34 $end
   $var wire 1 | _io_out_T_1 $end
   $var wire 32 "! _shitfl_T_17 $end
   $var wire 32 "# _shin_T_16 $end
   $var wire 4 "& io_alu_Op $end
   $var wire 1 "' _io_out_T_4 $end
   $var wire 1 ", cmp $end
   $var wire 1 "3 _io_out_T_16 $end
   $var wire 1 "5 _io_out_T_10 $end
   $var wire 32 "8 io_in_B $end
   $var wire 32 "; _io_out_T_31 $end
   $var wire 32 "? _shin_T_4 $end
   $var wire 32 "@ _shin_T_48 $end
   $var wire 30 "B _shitfl_T_34 $end
   $var wire 32 "C shin $end
   $var wire 1 "E _shin_T $end
   $var wire 32 "F _io_out_T_25 $end
   $var wire 32 "K _shin_T_36 $end
   $var wire 32 "L _io_out_T_28 $end
   $var wire 28 "M _shitfl_T_22 $end
   $var wire 32 "N _shitfl_T_37 $end
   $var wire 1 "Q _io_out_T $end
   $var wire 32 "R _io_out_T_13 $end
   $var wire 32 "S _shitfl_T_43 $end
   $var wire 1 "T _io_out_T_3 $end
   $var wire 32 "U _shin_T_24 $end
   $var wire 32 "X _shitfl_T_25 $end
   $var wire 33 "Y _shiftr_T_2 $end
   $var wire 32 "[ _shin_T_39 $end
   $var wire 32 "^ div $end
   $var wire 32 "_ io_out $end
   $var wire 32 "` _shin_T_18 $end
   $var wire 31 "b _shin_T_45 $end
   $var wire 16 "d _shitfl_T_4 $end
   $var wire 32 "g _shitfl_T_28 $end
   $var wire 30 "i _shin_T_33 $end
   $var wire 32 "m _shitfl_T_7 $end
   $var wire 1 "t _io_out_T_6 $end
   $var wire 32 "u _shitfl_T_13 $end
   $var wire 32 "w shiftr $end
   $var wire 32 "y _sum_T_3 $end
   $var wire 32 "{ _io_out_T_27 $end
   $var wire 24 "| _shin_T_15 $end
   $var wire 32 "~ _io_out_T_33 $end
   $var wire 1 #" _io_out_T_9 $end
   $var wire 1 #' _io_out_T_21 $end
   $var wire 32 #( _io_out_T_15 $end
   $var wire 32 #) _shin_T_9 $end
   $var wire 32 #4 _shitfl_T_45 $end
   $var wire 32 #5 _shin_T_44 $end
   $var wire 33 #7 _shiftr_T_4 $end
   $var wire 32 #: _shitfl_T_27 $end
   $var wire 32 #; _io_out_T_24 $end
   $var wire 32 #< _shin_T_26 $end
   $var wire 1 #> _io_out_T_18 $end
   $var wire 32 #@ io_in_A $end
   $var wire 16 #A _shin_T_3 $end
   $var wire 32 #C _io_out_T_30 $end
   $var wire 32 #F _shitfl_T_33 $end
   $var wire 32 #I _shitfl_T_15 $end
   $var wire 31 #J _shitfl_T_42 $end
   $var wire 30 #L _shin_T_35 $end
   $var wire 5 #N shamt $end
   $var wire 32 #P _shin_T_6 $end
   $var wire 1 #Q _io_out_T_12 $end
   $var wire 32 #S _shin_T_29 $end
   $var wire 32 #V _shin_T_14 $end
   $var wire 32 #X _shin_T_38 $end
   $var wire 1 #[ _io_out_T_2 $end
   $var wire 32 #\ _shitfl_T_3 $end
   $var wire 28 #] _shitfl_T_24 $end
   $var wire 1 #^ _shiftr_T_1 $end
   $var wire 32 #d _shitfl_T_18 $end
   $var wire 28 #e _shin_T_23 $end
  $upscope $end
$upscope $end
$enddefinitions $end
$dumpvars
b000000000000000000000000000000 "B
0=
0"1
b00000000000000000000000000000000 "U
b00000 "=
b00000000000000000000000000000000 "8
b00000000000000000000000000000000 "#
0"v
0#W
b0000000000000000000000000000 "M
b00000000000000000000000000000000 #*
b000 "4
b00000000000000000000000000000000 b
0a
0L
0D
b00000000000000000000000000000000 0
b00000000000000000000000000000000 "y
0/
b00000 '
b00000000000000000000000000000000 #=
b00000000000000000000000000000000 #(
b000 #&
0z
0#O
b00000000000000000000000000000000 s
0"Q
0@
0+
b00000000000000000000000000000000 "u
b00000000000000000000000000000000 #V
b00000 8
b00000000000000000000000000000000 A
b00000000000000000000000000000000 "X
b00000000000000000000000000000000 "C
b00000000000000000000000000000000 #$
b00000000000000000000000000000000 #9
b000000000000 5
0#b
b00000 "n
b000000000 -
b00000000000000000000000000000000 T
b0000000000000000000000000000000 P
0#^
b0000000000000000000000000000000 #J
b00000000000000000000000000000000 m
b00000000000000000000000000000000 e
0".
b00000000000000000000000000000000 "g
b0000000 ##
b00000000000000000000000000000000 #D
b00000 #Z
b000000000000 "O
0"o
b00000000000000000000000000000000 #8
b00000000000000000000000000000000 t
b00000000000000000000000000000000 "%
b00000000000000000000000000000000 B
b00 "6
b000 #U
0;
b000 2
b00000 #N
b00000 3
b00000000000000000000000000000000 "S
b00000000000000000000000000000000 #4
b000000000 ,
0Z
b00000000000000000000000000000000 S
b00000000000000000000000000000000 "!
b00000000000000000000000000000000 >
b000000000000000000000000000000000 "Y
b00 "*
b0000000000000000000000000000000 O
0k
0"-
b00000000000000000000000000000000 #2
b000000000000 u
0|
b00000000000000000000000000000000 "w
b00000000000000000000000000000000 #X
b00000000000000000000000000000000 #C
0#[
0"]
0#>
b000000000000000000000000000000000 ^
b00000000000000000000000000000000 M
b00000000000000000000000000000000 "0
0"+
b00000000000000000000000010010011 "
b0000000000000000000000000000000 "b
b00000000000000000000000000000000 {
b00000000000000000000000000000000 "^
b000000000000 "9
b00000 !
0#`
b00000000000000000000000000000000 o
0Y
0n
b00000000000000000000000000000000 #g
b00000000000000000000000000000000 #R
b00000000000000000000000000000000 #5
b00000000000000000000000000000000 "?
b0000000000000000000000000000 R
b000 #3
b0000 N
b000000000000000000000000 #
b00000 w
0",
b00000000000000000000000000000000 "m
b00000000000000000000000000000000 "e
b00000000000000000000000000000000 "P
b00000000000000000000000000000000 #1
b00000000000000000000000000000000 #F
b0000000000000000 ":
b0000000 #!
b000000000000000000000000000000000 #7
b000 #c
b00000 V
b00000 "f
b00000 #G
0"q
b00000 "I
0"\
b000000000000000000000000000000000 #H
b000000000000000000000000 "|
b00000000000000000000000000000000 ]
b00000000000000000000000000000000 H
0G
b00000000000000000000000000000000 "_
b000000000000000000000000000000000 x
b00000000000000000000000000000000 #@
0#-
0"7
0""
1"<
b000 #f
0#+
b00000000000000000000000000000000 "2
b00000000000000000000000000000000 #d
b000000000000000000000000000000000 j
b00000000000000000000000000000000 "`
b00000000000000000000000000000000 }
0g
0#'
b00000000000000000000000000000000 `
b0000000000000000 :
b00000000000000000000000000000000 K
b00000000000000000000000000000000 6
b000000000000000000000000 c
b00000 p
b00000 h
b00000 #Y
b00000 "c
0)
0#h
b00000000000000000000000000000000 #P
0v
0"j
0#K
b00000 "W
0#6
b00000000000000000000000000000000 "R
b0000000000000000000000000000 #e
b00000000000000000000000000000000 #a
b00000000000000000000000000000000 "k
b00000000000000000000000000000000 "N
b00000000000000000000000000000000 9
b000000000000 r
b000000000000000000000000000000 #L
b0000 "&
0"Z
0"E
1"J
1*
0"(
b00000000000000000000000000000000 "~
b00000000000000000000000000000000 #_
b00000000000000000000000000000000 "a
b00000000000000000000000000000000 "L
b00000000000000000000000000000000 i
b0000000000000000 ">
1"x
0"V
b0000000000000000 J
0E
0"$
b00000000000000000000000000000000 "z
0(
b00000000000000000000000000000000 #S
b00000000000000000000000000000000 #)
b0000000000000000 "d
b0000000000000000 #0
b00000000000000000000000000000000 "@
b00000 "s
0"T
b000000000000000000000000000000 [
b000000000 "G
0q
b00000 ~
0"H
0"3
07
b00000000000000000000000000000000 "l
b00000 #/
b00000000000000000000000000000000 f
0"D
0"/
b00000000000000000000000000000000 I
0#%
b00000000000000000000000000000000 4
0"'
b00000000000000000000000000000000 #I
b00000000000000000000000000000000 "K
b00000 Q
b00000 <
0"t
b00000 #B
b00000000000000000000000000000000 y
b00000000000000000000000000000000 \
b00000000000000000000000000000000 "{
b00000000000000000000000000000000 #\
b00000 "r
0"p
0#Q
0_
b00000000000000000000000000000000 ";
b00000000000000000000000000000000 X
b00000000000000000000000000000000 C
b00000000000000000000000000000000 #;
b000000000000000000000000000000 "i
b000000000000000000000000 l
0d
b00000 #M
b000000000 U
b00000 #E
b00000 ?
0.
b00000 "}
b00000 "h
b0000000000000000000000000000 #]
0#T
b00000 &
b00000000000000000000000000000000 "F
0#?
b0000000000000000 #.
0"A
0#"
b00000000000000000000000000000000 F
b00000000000000000000000000000000 1
b00000 #,
b00000000000000000000000000000000 "[
b00000000000000000000000000000000 #<
b00000000000000000000000000000000 ")
b00000000000000000000000000000000 W
0"5
0$
b00000000000000000000000000000000 %
b00000000000000000000000000000000 #:
b0000000000000000 #A
$end
#0
1#?
1.
b0010011 ##
1"Q
b000010000000 5
b000000000000000000000000000000100 #H
1#W
b00001 ~
b00001 "}
b00001 p
17
1"o
1#`
1"/
b00000000000000000000000010010011 #g
b00001 #Y
b00001 "c
1#h
1k
1"(
1#K
b00000000000000000000000000000100 #D
b00000000000000000000000010010011 #=
1#[
b00000000000000000000000010010011 A
1;
1#T
#1
b00001 Q
1"A
1"$
1v
1#O
1(
1"Z
1"p
1d
1"j
1""
1"1
1"]
1"H
1#b
1_
#6
0"A
0"$
0v
0(
0"Z
0"p
0d
0k
0#K
0"j
0""
0"1
0"]
0"H
0#b
0_
#11
1"A
1",
b00000000000000000000000000000010 "_
b00010 <
1"$
b00000000000000000000000000000001 #8
b00010 "W
b000100000000 5
b00000000000000000000000000000010 "%
b00010 ~
b111111111111111111111111111111110 j
1"Z
b00000000000000000000000000000010 "R
1"p
b00000000000000000000000000000010 0
b00000000001000000000000100010011 #g
b00000000000000000000000000000010 1
1d
1"j
1""
b00000000000000000000000000000010 "8
1#b
b00000000000000000000000000000100 "l
b00000000001000000000000100010011 A
1_
b000000000010 "O
b00010 #N
b000000000010 u
b00000000000000000000000000000100 "e
b00000000000000000000000000000010 %
1v
b00010 #G
b00000000000000000000000000000100 #2
b00001 "I
b000000000000000000000000000001000 #H
b00010 "}
b000000000000000000000000000000010 x
1(
b00010 p
b11111111111111111111111111111110 >
b00000000000000000000000000000010 "a
b00010 #Y
b00010 "c
b00010 8
b00000000000000000000000000001000 #D
1"1
b00000000000000000000000000000010 "y
b00000000001000000000000100010011 #=
b00000000000000000000000000000010 #(
b00000000000000000000000000000010 W
1"]
1"H
#16
0"A
0"$
0v
0(
0"Z
0"p
0d
0"j
0""
0"1
0"]
0"H
0#b
0_
#21
b00010 Q
b00000 <
b010 #U
b00000000000000000000000000000000 "_
b00000000000000000000000000000010 #8
b0100011 ##
b00000 "W
b00010 h
b00000000000000000000000000000000 "%
0#W
b00010 "n
b000000000000000000000000000000000 j
b010 #f
1"p
b00000000000000000000000000000000 0
b10 "6
1d
0#h
b010 2
1"j
1#6
b00000000000000000000000000000000 "8
1#b
b00000000000000000000000000001000 "l
b00000000001000001010000000100011 A
b00010 #M
b00010 #E
b0000000000000010 #0
b000000000000 u
b00000000000000000000000000000010 `
b00000000000000000000000000000010 "2
0.
b00010 "f
b00000000000000000000000000001000 #2
b00001 &
b00010 "I
b00000 "}
b00010 "h
1=
1(
0#`
b010 #&
0"(
b00001 V
b00000000000000000000000000000000 "y
b00000000001000001010000000100011 #=
1"\
b000000010 "G
b00000000000000000000000000000000 #(
b10 "*
0;
b00010 "s
0#T
b00001 3
1"A
0",
1"$
1g
b000000000000 5
b00000 ~
07
0"o
1"Z
b010 #3
b00001 "=
b00000000000000000000000000000000 "R
b0100 N
b00000000001000001010000000100011 #g
1"q
b00000000000000000000000000000000 1
1z
1""
b00000000000000000000000000000010 #a
b00000000000000000000000000000010 "k
b00001 #/
1_
b00000 #N
b00000000000000000000000000000010 B
b00000000000000000000000000001000 "e
b00000000000000000000000000000000 %
1v
1Y
1D
b000000000000000000000000000001100 #H
b00001 '
b000000000000000000000000000000000 x
b00000 p
1"-
b00000000000000000000000000000010 #_
b00000000000000000000000000000000 >
b00001 #B
b00000000000000000000000000000000 "a
b00001 !
1#%
1"D
0"/
b00000 #Y
b00000 "c
b00000 8
b00000000000000000000000000001100 #D
1"1
b00000000000000000000000000000000 W
b00000000000000000000000000000010 "z
b00010 "r
1"]
1"H
#26
0"A
0"$
0v
0(
0"Z
0"p
0d
0"j
0""
0"1
0"]
0"H
0#b
0_
#31
b00000 Q
b00000000000000000000000000000011 #8
b0000011 ##
b00000 h
1#W
0#O
b00000 "n
1"p
1d
1#h
1"j
0#6
b0000000000000010 #.
1#b
b00000000000000000000000000001100 "l
b00000000000000001010000110000011 A
b00000 #M
b00000 #E
b000000000000 "O
b0000000000000000 #0
b00000000000000000000000000000000 "2
b00000000000000000000000000000000 `
1.
b00000 #G
b00000000000000000000000000001100 #2
b00000 &
0"Q
b00011 "I
b00011 w
b010 "4
b00000 "f
b00000000000000000000000000000010 o
b00011 "}
b00000 "h
1(
1#`
b00010 ?
b000 #&
b00000000000000000000000000000010 "0
1"(
b00010 #Z
b00000000000000001010000110000011 #=
0"\
b000000000 "G
1;
b00000 "s
1#T
1"A
1#"
1"$
0g
b000110000000 5
b00000000000000000000000000000010 #$
b00011 ~
b0010 "&
17
1"o
1"Z
b00000000000000001010000110000011 #g
0"q
0z
1""
b00000000000000000000000000000000 #a
b00000000000000000000000000000000 "k
1_
b010 #c
b00000000000000000000000000000000 B
b00000000000000000000000000001100 "e
b00000000000000000000000000000010 "P
1v
0Y
0D
b000000000000000000000000000010000 #H
b00011 p
0"-
b00000000000000000000000000000000 #_
1#-
0#%
0"D
b000000010 U
b00011 #Y
b00011 "c
b00000000000000000000000000010000 #D
1"1
b00000000000000000000000000000010 ")
0#[
b00000000000000000000000000000000 "z
b00000 "r
1"]
1"H
#36
0"A
0"$
0v
0(
0"Z
0"p
0d
0"j
0""
0"1
0"]
0"H
0#b
0_
#41
b00011 Q
b000 #U
b00000000000000000000000000000100 #8
b0000000 ##
0#W
1#O
b000 #f
1"p
b00000000000000000000000000000010 0
b00 "6
1d
0#h
b000 2
1"j
1#b
b00000000000000000000000000010000 "l
b00000000000000000000000000000000 A
b000000010 ,
b0000000000000010 ":
0.
b00000000000000000000000000010000 #2
1"Q
b00100 "I
b00000 w
b000 "4
b00000000000000000000000000000000 o
b00000 "}
0=
1(
0#`
b00000 ?
0"(
b00000 V
b00000 #Z
b00000000000000000000000000000000 #=
b00 "*
0;
0#T
b00000 3
1"A
0#"
1"$
1g
b000000000000 5
b00000 ~
b0000 "&
07
0"o
1"Z
b000 #3
b00000 "=
b0000 N
b00000000000000000000000000000000 #g
1""
b00000 #/
1_
b000 #c
b00000000000000000000000000010000 "e
1v
b000000000000000000000000000010100 #H
b00000 '
b00000 p
b00000 #B
0#-
b00000 !
b00000000000000000000000000000010 "a
1"D
1"/
b00000 #Y
b00000 "c
b00000000000000000000000000010100 #D
1"1
1#[
1"]
1"H
#46
0"A
0"$
0v
0(
0"Z
0"p
0d
0"j
0""
0"1
0"]
0"H
0#b
0_
#51
b00000 Q
1"A
b00000000000000000000000000010100 "e
1"$
1v
b00000000000000000000000000000101 #8
b00000000000000000000000000010100 #2
b00101 "I
b000000000000000000000000000011000 #H
0#O
1(
1"Z
1"p
1d
b00000000000000000000000000011000 #D
1"j
1""
1"1
b00000000000000000000000000000010 "k
1"]
1"H
1#b
b00000000000000000000000000010100 "l
1_
