test_run_dir/DataPath_Test/DataPath.vcd
$date
2023-09-12T14:56+0000
$end
$version
0.2
$end
$comment

$end
$timescale 1ns  $end
$scope module DataPath $end
 $var wire 1 * datamem $end
 $var wire 16 . _regfile_io_datain_T_3 $end
 $var wire 16 / _datamem_io_datain_T_3 $end
 $var wire 1 1 regfile $end
 $var wire 32 3 io_out $end
 $var wire 1 A _datamem_io_datain_T_6 $end
 $var wire 5 E _alu_io_alu_Op_T $end
 $var wire 32 K _pc_T_2 $end
 $var wire 32 N _regfile_io_datain_T_9 $end
 $var wire 9 Y _regfile_io_datain_T $end
 $var wire 32 b _alu_io_in_A_T $end
 $var wire 1 z _datamem_io_datain_T_8 $end
 $var wire 1 "7 alu $end
 $var wire 16 "8 _datamem_io_datain_T_2 $end
 $var wire 16 "> _regfile_io_datain_T_2 $end
 $var wire 1 "D insmem $end
 $var wire 1 "F checkbranch $end
 $var wire 9 "I _regfile_io_datain_T_5 $end
 $var wire 9 "M _datamem_io_datain_T_5 $end
 $var wire 9 "U _datamem_io_datain_T $end
 $var wire 33 "Y _pc_T_1 $end
 $var wire 1 "d cu $end
 $var wire 1 "g clock $end
 $var wire 33 "o _alu_io_in_B_T_2 $end
 $var wire 1 #& _datamem_io_datain_T_4 $end
 $var wire 16 #) _datamem_io_datain_T_7 $end
 $var wire 16 #0 _regfile_io_datain_T_7 $end
 $var wire 32 #7 pc $end
 $var wire 9 #< _regfile_io_datain_T_1 $end
 $var wire 9 #? _datamem_io_datain_T_1 $end
 $var wire 32 #@ _pc_T $end
 $var wire 32 #D _pc_T_3 $end
 $var wire 32 #H _GEN_0 $end
 $var wire 1 #O _alu_io_in_B_T $end
 $var wire 1 #[ reset $end
 $var wire 32 #o _datamem_io_datain_T_9 $end
 $var wire 33 #u _alu_io_in_B_T_1 $end
  $scope module regfile $end
   $var wire 1 9 _T $end
   $var wire 5 k io_Rs2in $end
   $var wire 1 v clock $end
   $var wire 1 ", io_Wen $end
   $var wire 32 "; io_Rs2out $end
   $var wire 5 "K io_Rs1in $end
   $var wire 32 "q io_datain $end
   $var wire 32 #8 regFile $end
   $var wire 32 #d io_Rs1out $end
   $var wire 5 #l io_RD $end
    $scope module regFile $end
     $var wire 32 #I MPORT $end
      $scope module io_Rs1out_MPORT $end
       $var wire 5 ! addr $end
       $var wire 1 ? en $end
       $var wire 32 "! data $end
       $var wire 1 "< clk $end
      $upscope $end
      $scope module io_Rs2out_MPORT $end
       $var wire 1 ( clk $end
       $var wire 1 0 en $end
       $var wire 5 "s addr $end
       $var wire 32 #q data $end
      $upscope $end
      $scope module io_Rs1out_MPORT_1 $end
       $var wire 5 ) addr $end
       $var wire 32 x data $end
       $var wire 1 "R en $end
       $var wire 1 "V clk $end
      $upscope $end
      $scope module MPORT $end
       $var wire 32 2 data $end
       $var wire 5 W pipeline_addr_0 $end
       $var wire 1 h clk $end
       $var wire 1 "J mask $end
       $var wire 32 "w pipeline_data_0 $end
       $var wire 5 #+ addr $end
       $var wire 1 #_ pipeline_valid_0 $end
       $var wire 1 #g valid $end
       $var wire 1 #h en $end
      $upscope $end
      $scope module io_Rs2out_MPORT_1 $end
       $var wire 1 c clk $end
       $var wire 32 e data $end
       $var wire 1 j en $end
       $var wire 5 #] addr $end
      $upscope $end
    $upscope $end
  $upscope $end
  $scope module datamem $end
   $var wire 32 a memory $end
   $var wire 32 "& io_addr $end
   $var wire 32 "^ io_dataout $end
   $var wire 1 "v clock $end
   $var wire 1 #! io_Wen $end
   $var wire 32 #r io_datain $end
    $scope module memory $end
     $var wire 32 #A MPORT $end
      $scope module io_dataout_MPORT $end
       $var wire 5 < addr $end
       $var wire 1 ^ en $end
       $var wire 32 "- data $end
       $var wire 1 "~ clk $end
      $upscope $end
      $scope module io_dataout_MPORT_1 $end
       $var wire 5 @ addr $end
       $var wire 32 "9 data $end
       $var wire 1 "i clk $end
       $var wire 1 #( en $end
      $upscope $end
      $scope module MPORT $end
       $var wire 32 H data $end
       $var wire 1 I valid $end
       $var wire 32 p pipeline_data_0 $end
       $var wire 1 "O clk $end
       $var wire 1 "X mask $end
       $var wire 5 "e addr $end
       $var wire 1 #; pipeline_valid_0 $end
       $var wire 1 #F en $end
       $var wire 5 #U pipeline_addr_0 $end
      $upscope $end
    $upscope $end
  $upscope $end
  $scope module cu $end
   $var wire 3 $ _GEN_2 $end
   $var wire 32 % io_Imm $end
   $var wire 4 ' _io_func_T_3 $end
   $var wire 5 4 _GEN_24 $end
   $var wire 3 5 _GEN_18 $end
   $var wire 20 : _GEN_5 $end
   $var wire 1 ; _io_func_T_14 $end
   $var wire 12 > _io_Imm_T_5 $end
   $var wire 6 B io_Imm_lo_hi_hi $end
   $var wire 1 C _io_func_T_6 $end
   $var wire 4 J _io_func_T_17 $end
   $var wire 1 O _T $end
   $var wire 1 Q io_dobranch $end
   $var wire 4 R _io_func_T $end
   $var wire 1 U _GEN_41 $end
   $var wire 3 V _GEN_44 $end
   $var wire 5 Z _io_Rs1_T $end
   $var wire 4 \ _io_func_T_11 $end
   $var wire 5 ] _GEN_23 $end
   $var wire 5 _ _GEN_38 $end
   $var wire 2 g _io_func_T_5 $end
   $var wire 33 i _GEN_53 $end
   $var wire 3 m _GEN_32 $end
   $var wire 1 n io_Imm_hi_lo $end
   $var wire 1 o io_func_lo $end
   $var wire 20 q _GEN_47 $end
   $var wire 5 r _io_RD_T $end
   $var wire 5 t _GEN_11 $end
   $var wire 1 u _GEN_20 $end
   $var wire 1 y io_aluselect $end
   $var wire 5 ~ io_RD $end
   $var wire 5 "" _GEN_35 $end
   $var wire 1 "# _io_func_T_8 $end
   $var wire 1 "' _GEN_29 $end
   $var wire 33 ") _io_Imm_T_7 $end
   $var wire 2 "/ _io_lengthselect_T $end
   $var wire 12 "1 _io_Imm_T_1 $end
   $var wire 1 "3 io_Instype $end
   $var wire 1 "5 io_MemWrite $end
   $var wire 1 "6 _io_func_T_10 $end
   $var wire 1 "? _GEN_17 $end
   $var wire 2 "A io_lengthselect $end
   $var wire 5 "G _GEN_4 $end
   $var wire 4 "H _io_func_T_13 $end
   $var wire 1 "L io_pcselec $end
   $var wire 12 "N _io_Imm_T_4 $end
   $var wire 3 "T _GEN_46 $end
   $var wire 1 "Z _GEN_40 $end
   $var wire 1 "[ _GEN_34 $end
   $var wire 1 "\ _io_func_T_16 $end
   $var wire 12 "] _io_Imm_T $end
   $var wire 3 "f _GEN_58 $end
   $var wire 3 "h _GEN_22 $end
   $var wire 4 "j io_Imm_lo_hi_lo $end
   $var wire 5 "k _GEN_37 $end
   $var wire 1 "l _GEN_43 $end
   $var wire 1 "m _io_pcselec_T $end
   $var wire 3 "r _GEN_16 $end
   $var wire 1 "t _io_func_T_4 $end
   $var wire 33 "u _GEN_25 $end
   $var wire 5 "{ io_Rs2 $end
   $var wire 1 "| io_wbselect $end
   $var wire 5 #" _GEN_3 $end
   $var wire 20 ## _GEN_19 $end
   $var wire 1 #$ _GEN_31 $end
   $var wire 3 #' _io_func_T_7 $end
   $var wire 7 #, io_Imm_lo $end
   $var wire 7 #. Opcode $end
   $var wire 33 #/ _io_Imm_T_6 $end
   $var wire 33 #1 _GEN_13 $end
   $var wire 33 #2 _GEN_6 $end
   $var wire 4 #3 _io_func_T_15 $end
   $var wire 19 #: _GEN_0 $end
   $var wire 5 #= _GEN_9 $end
   $var wire 3 #B io_func_hi $end
   $var wire 32 #C _GEN_63 $end
   $var wire 33 #L _GEN_39 $end
   $var wire 1 #P _io_func_T_12 $end
   $var wire 5 #R io_Rs1 $end
   $var wire 1 #S io_btype $end
   $var wire 1 #T _GEN_45 $end
   $var wire 5 #X _io_Rs2_T $end
   $var wire 3 #Z _GEN_30 $end
   $var wire 1 #\ _GEN_27 $end
   $var wire 5 #` _GEN_12 $end
   $var wire 4 #a io_btypefun $end
   $var wire 1 #b _GEN_48 $end
   $var wire 20 #f _GEN_33 $end
   $var wire 3 #j _io_func_T_9 $end
   $var wire 5 #k io_func $end
   $var wire 4 #n _GEN_36 $end
   $var wire 5 #p _GEN_21 $end
   $var wire 20 #s immgen $end
   $var wire 1 #t _GEN_8 $end
   $var wire 1 #v _GEN_15 $end
   $var wire 32 #w io_ins $end
   $var wire 1 #x io_RegWrite $end
  $upscope $end
  $scope module insmem $end
   $var wire 32 " imem $end
   $var wire 32 G io_inst $end
   $var wire 1 "% clock $end
   $var wire 32 "x io_addr $end
    $scope module imem $end
      $scope module io_inst_MPORT $end
       $var wire 1 + en $end
       $var wire 1 "$ clk $end
       $var wire 5 "W addr $end
       $var wire 32 #M data $end
      $upscope $end
    $upscope $end
  $upscope $end
  $scope module alu $end
   $var wire 33 # _sum_T $end
   $var wire 32 - _io_out_T_5 $end
   $var wire 63 6 shitfl $end
   $var wire 63 7 _io_out_T_26 $end
   $var wire 1 = _io_out_T_11 $end
   $var wire 1 D _cmpU_T_2 $end
   $var wire 1 F _io_out_T_8 $end
   $var wire 1 L _io_out_T_14 $end
   $var wire 63 M _io_out_T_20 $end
   $var wire 63 X _io_out_T_23 $end
   $var wire 32 [ sum $end
   $var wire 32 ` shiftrl $end
   $var wire 32 f _io_out_T_17 $end
   $var wire 32 l _sum_T_1 $end
   $var wire 1 s _io_out_T_7 $end
   $var wire 1 } _io_out_T_1 $end
   $var wire 4 "( io_alu_Op $end
   $var wire 1 "+ _io_out_T_4 $end
   $var wire 32 ". _GEN_0 $end
   $var wire 63 "2 _io_out_T_22 $end
   $var wire 2 "4 cmp $end
   $var wire 32 ": _sub_T_1 $end
   $var wire 32 "= _io_out_T_16 $end
   $var wire 32 "@ _io_out_T_10 $end
   $var wire 32 "B _io_out_T_19 $end
   $var wire 32 "E io_in_B $end
   $var wire 32 "Q _cmpU_T_1 $end
   $var wire 63 "S _io_out_T_25 $end
   $var wire 1 "_ _io_out_T $end
   $var wire 32 "` _io_out_T_13 $end
   $var wire 1 "b _io_out_T_3 $end
   $var wire 32 "n io_out $end
   $var wire 32 "z shiftrA $end
   $var wire 2 "} cmpU $end
   $var wire 1 #% _io_out_T_6 $end
   $var wire 32 #- _io_out_T_9 $end
   $var wire 63 #4 _io_out_T_21 $end
   $var wire 32 #5 _io_out_T_15 $end
   $var wire 32 #9 _cmpU_T $end
   $var wire 32 #E sub $end
   $var wire 33 #G _sub_T $end
   $var wire 63 #J _io_out_T_24 $end
   $var wire 32 #N _io_out_T_18 $end
   $var wire 32 #Q io_in_A $end
   $var wire 1 #V _cmp_T $end
   $var wire 5 #^ shamt $end
   $var wire 32 #c _io_out_T_12 $end
   $var wire 1 #m _io_out_T_2 $end
  $upscope $end
  $scope module checkbranch $end
   $var wire 1 & _io_doBranch_T_14 $end
   $var wire 32 , _bgeu_T_1 $end
   $var wire 1 8 _io_doBranch_T_8 $end
   $var wire 1 P _io_doBranch_T_2 $end
   $var wire 1 S io_isBtype $end
   $var wire 32 T io_in_B $end
   $var wire 1 d _io_doBranch_T_5 $end
   $var wire 32 w io_in_A $end
   $var wire 1 { _io_doBranch_T $end
   $var wire 1 | _io_doBranch_T_10 $end
   $var wire 1 "* _io_doBranch_T_13 $end
   $var wire 32 "0 _bgeu_T $end
   $var wire 1 "C _io_doBranch_T_7 $end
   $var wire 1 "P blt $end
   $var wire 1 "a _io_doBranch_T_1 $end
   $var wire 1 "c _io_doBranch_T_4 $end
   $var wire 1 "p bltu $end
   $var wire 1 "y io_doBranch $end
   $var wire 1 #* bgeu $end
   $var wire 1 #6 _io_doBranch_T_3 $end
   $var wire 1 #> _io_doBranch_T_12 $end
   $var wire 1 #K Beq $end
   $var wire 1 #W _io_doBranch_T_6 $end
   $var wire 4 #Y io_fun3 $end
   $var wire 1 #e _io_doBranch_T_9 $end
   $var wire 1 #i _io_doBranch_T_11 $end
  $upscope $end
$upscope $end
$enddefinitions $end
$dumpvars
b0000000000000000000 #:
b0000 #a
0o
0"c
0=
b00000 _
0"P
b00 "A
b000000000000000000000000000000000 ")
0#t
0"v
0#W
b000 V
b000 "f
b000 $
0#S
b00000000000000000000000000000000 w
b00000000000000000000000000000000 b
0L
b00000000000000000000000000000000 #w
0#!
0D
b00000000000000000000000000000000 #o
0"#
b000 5
0z
0#O
0"<
b00000000000000000000000000000000 #9
b00000000000000000000000000000000 "&
b00000 #l
b00 "/
0#b
0"l
0"d
0"O
b00000000000000000000000000000000 T
b0000000000000000 .
b000000000000000000000000000000000 #u
b000 "T
b00000000000000000000000000000000 e
0O
0"C
0#$
b00000000000000000000000000000000 3
b00000000000000000000000000000000 #H
b000000000000000000000000000000000 #L
b000000000000000000000000000000000000000000000000000000000000000 X
b000000000 "U
0"?
0"*
b00000000000000000000000000000000 #D
b0000000000000000 "8
b000000000000000000000000000000000000000000000000000000000000000 7
0?
0#m
b000 #'
0#P
b00000000000000000000000000000000 #8
b00000000000000000000 #s
b00000 "G
b00000 #=
b00000000000000000000000000000000 -
b00 "}
b000 #j
0;
b00000 #k
b00000000000000000000000000000000 p
b00000000000000000000000000000000 [
b00000000000000000000000000000000 "!
b000000000000000000000000000000000 "Y
0"_
09
1#(
b00000000000000000000000000000000 2
0"~
0#_
b00000000000000000000000000000000 "Q
b00000 "k
b00000 )
b0000 #n
b0000 #Y
0|
b00000 t
1+
b00000 W
b00000 #]
b00000000000000000000000000000000 "w
b00000000000000000000000000000000 #C
0#[
0#>
b00000000000000000000000000000000 "E
b00000000000000000000000000000000 "0
b00000 #+
0"+
b00000000000000000000000000000000 "^
b00000 !
b0000000000000000 #)
b000000 B
b00000000000000000000000000000000 ,
b000000000000000000000000000000000000000000000000000000000000000 "S
b00000000000000000000 ##
b000000000000000000000000000000000000000000000000000000000000000 #4
b00000000000000000000 q
b0000 "j
0n
b00000000000000000000000000000000 "q
b00000 4
b00000000000000000000000000000000 #5
0#\
0j
0U
0#*
b00000000000000000000000000000000 N
08
b00000000000000000000000000000000 #c
0",
b00000 E
b00000000000000000000000000000000 #N
b000000000000 "]
b000000000000000000000000000000000 i
b0000 "(
b00000 "{
0"y
0}
0h
0"\
b00000000000000000000000000000000 a
b000000000000000000000000000000000 "o
b000 #B
b00000 #X
0y
0"m
b00000000000000000000000000000000 H
b00000000000000000000000000000000 #r
b0000000000000000 /
0*
b00000000000000000000000000000000 #@
b00000000000000000000000000000000 "B
b000000000 "M
0"L
0"7
b0000 '
0C
0&
b00000000000000000000000000000000 #Q
b0000000 #,
b000000000 #?
b000000000 "I
b00000000000000000000 :
b0000 "H
0"|
b00000000000000000000000000000000 #E
0"g
b00000000000000000000000000000000 l
b00000 ""
b00000000000000000000000000000000 #d
b00000 r
0#v
b00000 @
b00000 "e
b00000000000000000000000000000000 "`
b00000000000000000000000000000000 #A
0"[
0"F
b00000000000000000000000000000000 `
b00000000000000000000000000000000 K
b00000000000000000000000000000000 ".
b000000000000000000000000000000000 #G
b000000000000000000000000000000000 #2
0F
b00000000000000000000000000000000 #q
b00000000010100000000000010010011 "
1"X
b00000 #U
0#h
0v
0#K
b00000 "W
0#6
b00000000000000000000000000000000 "=
b000000000000000000000000000000000000000000000000000000000000000 "2
b000000000000000000000000000000000 "u
b000000000000000000000000000000000000000000000000000000000000000 M
b000000000 Y
b00000000000000000000000000000000 "9
b000000000 #<
0{
b0000 J
0#&
b00 g
0I
0"Z
0#;
0Q
1"J
b00000000000000000000000000000000 #-
b0000000000000000 ">
b000000000000 >
0#i
0"V
b00000 Z
00
0"$
b00000 #`
0(
0#V
b00000000000000000000000000000000 "z
b0000000000000000 #0
b00000000000000000000000000000000 "@
b0000000 #.
b000000000000000000000000000000000 #/
b00 "4
b000 "r
0#g
b00000 "s
0u
0"i
b00000 #"
b000000000000000000000000000000000 #
0#x
0#F
b00000 ~
0"3
b00000 #R
b00000000000000000000000000000000 #M
b00000000000000000000000000000000 ":
b000000000000000000000000000000000000000000000000000000000000000 #J
0"a
b00000000000000000000000000000000 f
0P
0"D
0#%
b00000 ]
0"'
b00000000000000000000000000000000 #I
b000 m
b000 "h
b00000 <
0"t
b0000 \
0c
b00000000000000000000000000000000 G
01
0"%
b000 #Z
b00000 #p
0"p
b00000000000000000000000000000000 ";
0"6
b000000000000000000000000000000000000000000000000000000000000000 6
0S
b000000000000 "N
b00000000000000000000000000000000 #7
b000000000000 "1
0d
0"b
b00000000000000000000 #f
b0000 R
b00000000000000000000000000000000 "-
b000000000000000000000000000000000 #1
b00000 #^
b00000000000000000000000000000000 "x
0#T
b00000 "K
b00000000000000000000000000000000 x
0#e
0s
0^
0"R
b0000 #3
b00000 k
0A
0"5
b00000000000000000000000000000000 %
b00000000000000000000000000000000 "n
$end
#0
b00001 <
1"_
b00000000000000000000000000000001 #@
b00001 #l
1#W
b00000000000000000000000000000001 K
1#O
b000000000000000000000000000000001 "Y
b00000000000000000000000000000001 "n
10
1d
1#h
b00000000010100000000000010010011 G
b00000000000000000000000000000001 2
1#K
b0010011 #.
1{
b00000000010100000000000010010011 #M
b11111111111111111111111111111111 #E
b11111111111111111111111111111111 ":
b111111111111111111111111111111111 #G
b00000000000000000000000000000001 "Q
1&
1#*
b01 "4
b00001 #^
b01 "}
b00000000000000000000000000000001 "`
b00000000000000000000000000000001 ".
b000000000000000000000000000000001 #u
1?
b00101 #X
b00000000000000000000000000000101 #C
1#&
b00000000000000000000000000000001 "E
b00000000010100000000000010010011 #w
19
b00000000000000000000000000000001 3
1",
1#V
b00001 ~
b000000000000000000000000000000101 i
b00000000000000000000000000000001 "&
b000000000000000000000000000000000000000000000000000000000000001 7
b000000000000000000000000000000001 "o
1"Z
b00000000000000000000000000000001 "=
1#g
b00000000000000000000000000000001 "q
b00000000000000000000000000000001 #5
b00001 ""
b000000000000000000000000000000101 #L
b000010000000 "N
b000000000000000000000100000000000 #/
1#x
b00000000000000000000000000000001 #c
b00001 "e
b00000000000000000000000000000101 %
1D
1"|
b00000000000000000000000000000001 #H
b1010 '
b00001 #+
b00000000000000000000000000000001 [
b000010000000 >
b00001 r
b00001 @
b00000000000000000000000000000001 #D
b000000000000000000000000000000001 #
b000000000101 "1
b000000000000000000000100000000000 ")
b00000000000000000000000000000001 l
1#[
b000000000101 "]
1n
#1
b00001 #U
1"$
1v
1"%
1h
1"g
1"v
1(
1"<
1"~
1#_
1c
b00000000000000000000000000000001 "w
1"i
b00001 W
1"V
1"O
#6
0"$
0v
0"%
0h
0"g
0"v
0(
0"<
0"~
0c
0"i
0#[
0"V
0"O
#11
1"$
b00001 "W
1"%
1h
b00010 #l
1"v
b00000000000000000000000000000010 K
b00010 ~
b000000000000000000000000000000010 "Y
1"<
b00000000000000000000000000000001 b
1c
1"i
b00000000010100000000000100010011 G
b0001 "j
b00010 ""
b00000000000000000000000000000001 #7
1"V
b000100000000 "N
b000000000000000000000000000000010 #/
b00000000010100000000000100010011 #M
1"O
1v
1"g
b00010 #+
1(
1"~
b000100000000 >
b00010 r
b00000000000000000000000000000001 "x
b00000000000000000000000000000010 #D
b00000000010100000000000100010011 #w
b000000000000000000000000000000010 ")
0n
#16
0c
0"$
0"i
0v
0"%
0h
0"g
0"v
0"V
0(
0"<
0"~
0"O
#21
b00010 4
1S
1"v
1j
b00000000000000000000000000000010 b
b00000000000000000000000000000010 #Q
00
1y
b00000000000000000000000000000001 "!
b00000000001000001000010001100011 G
b0100 "j
b1100011 #.
b000000001 "M
1#b
b00000000001000001000010001100011 #M
1"l
b00000000000000000000000000000001 ,
b00000000000000000000000000000000 #E
1"O
b00000000000000000000000000000000 ":
1u
b000000000000000000000000000000000 #G
b00 "4
b000000000000000000000000000000010 #u
b00010 #`
b00000000000000000000000000001000 #C
b00000000000000000000000000000010 "E
b00000000001000001000010001100011 #w
b00000000000000000000000000000001 #q
b00010 "{
b000000001 #?
0",
b000000000000000000000000000001000 "u
0#V
b00000000000000000000000000000010 #9
1#$
b00000 ~
b00000000000000000000000000000001 ";
b00000000000000000000000000000100 "&
b000000000000000000000000000000010 "o
0"Z
b00000000000000000000000000000000 "=
1c
0#g
1"i
b00000000000000000000000000000000 #5
1"?
b00000 ""
b00001 ]
b010000000000 "N
b000000000000000000000000000001000 #/
1"m
1v
b00000000000000000000000000000001 x
b01000 r
1#v
b00100 @
b00000000000000000000000000000010 "x
b00000000000000000000000000000100 #D
b000000000000000000000000000000100 #
b000000000010 "1
b00000000000000000000000000000100 l
1#S
b000000000010 "]
b00000000000000000000000000000010 "@
b00000000000000000000000000000001 #r
1Q
b00100 <
b00000000000000000000000000000100 #@
b00010 "W
1"%
1h
b00000 #l
b00000000000000000000000000000011 K
b000000000000000000000000000000000000000000000000000000000001000 6
b00000000000000000000000000000100 "n
b000000000000000000000000000000011 "Y
1"<
1"'
0#h
b00000000000000000000000000000000 2
b000000001 "U
b0000000000000001 "8
b00000000000000000000000000000001 #d
b000000000000000000000000000001000 #2
b00000000000000000000000000000010 "Q
b00000000000000000000000000000001 w
b00001 Z
b00010 #^
b00 "}
1(
b00000000000000000000000000000010 "`
b00001 "K
b00000000000000000000000000000100 ".
b00000000000000000000000000000001 T
0?
b00010 #X
b00000000000000000000000000000001 "0
b00010 k
b00000000000000000000000000000001 #o
1"y
09
b00010 "G
b00010 "s
1#T
b00000000000000000000000000000100 3
b00001 #"
1"$
b000000000000000000000000000001000 i
b000000000000000000000000000000000000000000000000000000000000100 7
b0000000000000001 /
1"R
b00001 #R
b00000000000000000000000000000000 "q
b00000000000000000000000000000001 e
b00000000000000000000000000000001 H
b00001 "k
b00000000000000000000000000000010 #7
1"V
b000000000000000000000000000001000 #L
b00001 t
b00010 _
0#x
b00000000000000000000000000000010 #c
b00100 "e
b000000000000000000000000000001000 #1
b00000000000000000000000000001000 %
0D
0"|
1"g
b00010 #]
b00000000000000000000000000000010 #H
b00000 #+
b00000000000000000000000000000100 [
1#t
1"~
b010000000000 >
b00001 )
1"L
b00001 !
b00000000000000000000000000000010 #-
1"[
b000000000000000000000000000001000 ")
b00010 W
b0000000000000001 #)
#26
0c
0"$
0"i
0v
0"%
0h
0"g
0"v
0"V
0(
0"<
0"~
0"O
#31
b00000 4
0S
1"v
b00000000000000000000000000000100 b
b00000000000000000000000000000000 #Q
0y
b00000000000000000000000000000000 "!
b00000000000000000000000000010011 G
b0000 "j
b0010011 #.
b000000000 "M
0#b
b00000000000000000000000000010011 #M
0"l
b00000000000000000000000000000000 ,
1"O
0u
b000000000000000000000000000000000 #u
b00000 #`
b00000000000000000000000000000000 #C
b00000000000000000000000000000000 "E
b00000000000000000000000000010011 #w
b00000000000000000000000000000000 #q
b00000 "{
b000000000 #?
1",
b000000000000000000000000000000000 "u
b00000000000000000000000000000000 #9
0#$
b00000000000000000000000000000000 ";
b00000000000000000000000000000000 "&
b000000000000000000000000000000000 "o
1"Z
1c
1"i
0"?
b00000 ]
b000000000000 "N
b000000000000000000000000000000000 #/
0"m
1v
b00000000000000000000000000000000 x
b00000 r
0#v
b00000 @
b00000000000000000000000000000100 "x
b00000000000000000000000000000101 #D
b000000000000000000000000000000000 #
b000000000000 "1
b00000000000000000000000000000000 l
0#S
b000000000000 "]
b00000000000000000000000000000000 "@
b00000000000000000000000000000000 #r
0Q
b00000 <
b00100 #U
b00000000000000000000000000000000 #@
b00100 "W
1"%
1h
b00000000000000000000000000000101 K
b000000000000000000000000000000000000000000000000000000000000000 6
b00000000000000000000000000000000 "n
b000000000000000000000000000000101 "Y
1"<
0"'
b000000000 "U
b0000000000000000 "8
b00000000000000000000000000000000 #d
b000000000000000000000000000000000 #2
b00000000000000000000000000000000 "Q
b00000000000000000000000000000000 w
b00000 Z
b00000 #^
1(
b00000000000000000000000000000000 "`
b00000 "K
b00000000000000000000000000000000 ".
b00000000000000000000000000000000 T
b00000000000000000000000000000000 "w
b00000 #X
b00000000000000000000000000000000 "0
b00000 k
b00000000000000000000000000000000 #o
0"y
b00000 "G
b00000 "s
0#T
b00000000000000000000000000000000 3
b00000 #"
1"$
b000000000000000000000000000000000 i
b000000000000000000000000000000000000000000000000000000000000000 7
b0000000000000000 /
b00000 #R
b00000000000000000000000000000000 e
b00000000000000000000000000000000 H
b00000 "k
b00000000000000000000000000000100 #7
1"V
b000000000000000000000000000000000 #L
b00000 t
b00000 _
1#x
b00000000000000000000000000000000 #c
b00000 "e
b000000000000000000000000000000000 #1
b00000000000000000000000000000000 %
1"|
1"g
b00000 #]
b00000000000000000000000000000000 #H
b00000000000000000000000000000001 p
b00000000000000000000000000000000 [
0#t
1"~
0#_
b000000000000 >
b00000 )
0"L
b00000 !
b00000000000000000000000000000000 #-
0"[
b000000000000000000000000000000000 ")
b00000 W
b0000000000000000 #)
#36
0c
0"$
0"i
0v
0"%
0h
0"g
0"v
0"V
0(
0"<
0"~
0"O
#41
b00000 #U
0",
1"$
b00101 "W
1"%
1h
1"v
b00000000000000000000000000000110 K
b000000000000000000000000000000110 "Y
1"<
0"Z
b00000000000000000000000000000101 b
1c
1"i
b00000000000000000000000000000000 G
b0000000 #.
b00000000000000000000000000000101 #7
1"V
b00000000000000000000000000000000 #M
0#x
1"O
1v
0"|
1"g
b00000000000000000000000000000000 p
1(
1"~
b00000000000000000000000000000101 "x
b00000000000000000000000000000110 #D
b00000000000000000000000000000000 #w
#46
0c
0"$
0"i
0v
0"%
0h
0"g
0"v
0"V
0(
0"<
0"~
0"O
#51
1"$
b00110 "W
1v
1"%
1h
1"g
1"v
b00000000000000000000000000000111 K
b000000000000000000000000000000111 "Y
1(
1"<
1"~
b00000000000000000000000000000110 b
1c
1"i
b00000000000000000000000000000110 "x
b00000000000000000000000000000111 #D
b00000000000000000000000000000110 #7
1"V
1"O
