test_run_dir/DataPath_Test/DataPath.vcd
$date
2023-09-09T19:30+0000
$end
$version
0.2
$end
$comment

$end
$timescale 1ns  $end
$scope module DataPath $end
 $var wire 1 ) datamem $end
 $var wire 1 - regfile $end
 $var wire 32 / io_out $end
 $var wire 1 "' alu $end
 $var wire 1 ". insmem $end
 $var wire 1 "J cu $end
 $var wire 1 "M clock $end
 $var wire 1 "x pc $end
 $var wire 1 #, _alu_io_in_B_T $end
 $var wire 1 #8 reset $end
  $scope module regfile $end
   $var wire 1 4 _T $end
   $var wire 5 c io_Rs2in $end
   $var wire 1 q clock $end
   $var wire 1 "" io_Wen $end
   $var wire 32 "* io_Rs2out $end
   $var wire 5 "3 io_Rs1in $end
   $var wire 32 "T io_datain $end
   $var wire 32 "w regFile $end
   $var wire 32 #@ io_Rs1out $end
   $var wire 5 #F io_RD $end
    $scope module regFile $end
     $var wire 32 #& MPORT $end
      $scope module io_Rs1out_MPORT $end
       $var wire 5 ! addr $end
       $var wire 1 8 en $end
       $var wire 32 w data $end
       $var wire 1 ") clk $end
      $upscope $end
      $scope module io_Rs1out_MPORT_1 $end
       $var wire 5 ' addr $end
       $var wire 32 t data $end
       $var wire 1 "9 en $end
       $var wire 1 "< clk $end
      $upscope $end
      $scope module io_Rs2out_MPORT $end
       $var wire 1 ( clk $end
       $var wire 1 , en $end
       $var wire 5 "Y addr $end
       $var wire 32 #L data $end
      $upscope $end
      $scope module MPORT $end
       $var wire 32 . data $end
       $var wire 5 L pipeline_addr_0 $end
       $var wire 1 _ clk $end
       $var wire 1 "2 mask $end
       $var wire 32 "^ pipeline_data_0 $end
       $var wire 5 "n addr $end
       $var wire 1 #< pipeline_valid_0 $end
       $var wire 1 #B valid $end
       $var wire 1 #D en $end
      $upscope $end
      $scope module io_Rs2out_MPORT_1 $end
       $var wire 1 Z clk $end
       $var wire 32 [ data $end
       $var wire 1 b en $end
       $var wire 5 #: addr $end
      $upscope $end
    $upscope $end
  $upscope $end
  $scope module datamem $end
   $var wire 32 W memory $end
   $var wire 32 } io_addr $end
   $var wire 32 "D io_dataout $end
   $var wire 1 "] clock $end
   $var wire 1 "d io_Wen $end
   $var wire 32 #M io_datain $end
    $scope module memory $end
     $var wire 32 "| MPORT $end
      $scope module io_dataout_MPORT $end
       $var wire 5 5 addr $end
       $var wire 1 S en $end
       $var wire 32 "# data $end
       $var wire 1 "c clk $end
      $upscope $end
      $scope module io_dataout_MPORT_1 $end
       $var wire 5 9 addr $end
       $var wire 32 "( data $end
       $var wire 1 "P clk $end
       $var wire 1 "j en $end
      $upscope $end
      $scope module MPORT $end
       $var wire 32 = data $end
       $var wire 1 ? valid $end
       $var wire 32 j pipeline_data_0 $end
       $var wire 1 "6 clk $end
       $var wire 1 "> mask $end
       $var wire 5 "K addr $end
       $var wire 1 "z pipeline_valid_0 $end
       $var wire 1 ## en $end
       $var wire 5 #2 pipeline_addr_0 $end
      $upscope $end
    $upscope $end
  $upscope $end
  $scope module pc $end
   $var wire 1 f reset $end
   $var wire 32 "X counter $end
   $var wire 32 "} io_nextaddr $end
   $var wire 32 #1 _counter_T_1 $end
   $var wire 33 #5 _counter_T $end
   $var wire 1 #N clock $end
  $upscope $end
  $scope module cu $end
   $var wire 32 % io_Imm $end
   $var wire 5 & _GEN_2 $end
   $var wire 12 0 _GEN_18 $end
   $var wire 12 2 _io_Imm_T_2 $end
   $var wire 1 G _T $end
   $var wire 4 I _io_func_T $end
   $var wire 5 P _io_Rs1_T $end
   $var wire 5 X io_Imm_hi $end
   $var wire 1 i io_func_lo $end
   $var wire 5 k _io_RD_T $end
   $var wire 1 o _GEN_20 $end
   $var wire 5 p _GEN_14 $end
   $var wire 3 r _GEN_7 $end
   $var wire 5 x io_RD $end
   $var wire 1 "$ io_Instype $end
   $var wire 1 "& io_MemWrite $end
   $var wire 5 ", _GEN_17 $end
   $var wire 12 "0 _GEN_4 $end
   $var wire 12 "C _io_Imm_T $end
   $var wire 5 "V _GEN_16 $end
   $var wire 12 "[ _GEN_10 $end
   $var wire 5 "a io_Rs2 $end
   $var wire 1 "b io_wbselect $end
   $var wire 1 "e _GEN_19 $end
   $var wire 5 "f _GEN_3 $end
   $var wire 7 "p io_Imm_lo $end
   $var wire 7 "r Opcode $end
   $var wire 5 "s _GEN_6 $end
   $var wire 5 "y _GEN_0 $end
   $var wire 5 "{ _GEN_9 $end
   $var wire 3 "~ io_func_hi $end
   $var wire 5 #/ io_Rs1 $end
   $var wire 5 #4 _io_Rs2_T $end
   $var wire 1 #= _GEN_12 $end
   $var wire 5 #G io_func $end
   $var wire 5 #O _GEN_8 $end
   $var wire 3 #R _GEN_15 $end
   $var wire 32 #S io_ins $end
   $var wire 1 #T io_RegWrite $end
  $upscope $end
  $scope module insmem $end
   $var wire 32 " imem $end
   $var wire 32 < io_inst $end
   $var wire 1 | clock $end
   $var wire 32 "_ io_addr $end
   $var wire 32 #% _io_inst_T $end
    $scope module imem $end
      $scope module io_inst_MPORT $end
       $var wire 1 * en $end
       $var wire 1 z clk $end
       $var wire 5 "= addr $end
       $var wire 32 #* data $end
      $upscope $end
    $upscope $end
  $upscope $end
  $scope module alu $end
   $var wire 24 # _shitfl_T_12 $end
   $var wire 1 $ _sum_T $end
   $var wire 1 + _io_out_T_5 $end
   $var wire 32 1 shitfl $end
   $var wire 32 3 _io_out_T_26 $end
   $var wire 32 6 _io_out_T_11 $end
   $var wire 16 7 _shin_T_5 $end
   $var wire 32 : _sum_T_2 $end
   $var wire 1 ; _io_out_T_8 $end
   $var wire 32 > _io_out_T_32 $end
   $var wire 1 @ _io_out_T_14 $end
   $var wire 32 A _shitfl_T_23 $end
   $var wire 1 B _io_out_T_20 $end
   $var wire 32 C _io_out_T_35 $end
   $var wire 32 D _io_out_T_29 $end
   $var wire 16 E _shitfl_T_2 $end
   $var wire 32 F _shitfl_T_38 $end
   $var wire 32 H _shin_T_8 $end
   $var wire 31 J _shitfl_T_44 $end
   $var wire 31 K _shin_T_43 $end
   $var wire 28 M _shin_T_25 $end
   $var wire 32 N _io_out_T_23 $end
   $var wire 32 O _shitfl_T_47 $end
   $var wire 32 Q sum $end
   $var wire 32 R _shin_T_46 $end
   $var wire 1 T shiftr_hi $end
   $var wire 30 U _shitfl_T_32 $end
   $var wire 32 V _shitfl_T_5 $end
   $var wire 33 Y _shiftr_T_3 $end
   $var wire 1 \ _io_out_T_17 $end
   $var wire 32 ] _shin_T_19 $end
   $var wire 24 ^ _shitfl_T_14 $end
   $var wire 32 ` _shitfl_T_8 $end
   $var wire 32 a _shin_T_34 $end
   $var wire 32 d _shin_T_49 $end
   $var wire 33 e _sum_T_1 $end
   $var wire 24 g _shin_T_13 $end
   $var wire 32 h _shitfl_T_35 $end
   $var wire 1 l _io_out_T_7 $end
   $var wire 32 m _shin_T_28 $end
   $var wire 32 n rem $end
   $var wire 33 s _sum_T_4 $end
   $var wire 32 u _io_out_T_34 $end
   $var wire 1 v _io_out_T_1 $end
   $var wire 32 y _shitfl_T_17 $end
   $var wire 32 { _shin_T_16 $end
   $var wire 4 ~ io_alu_Op $end
   $var wire 1 "! _io_out_T_4 $end
   $var wire 1 "% cmp $end
   $var wire 1 "+ _io_out_T_16 $end
   $var wire 1 "- _io_out_T_10 $end
   $var wire 32 "/ io_in_B $end
   $var wire 32 "1 _io_out_T_31 $end
   $var wire 32 "4 _shin_T_4 $end
   $var wire 32 "5 _shin_T_48 $end
   $var wire 30 "7 _shitfl_T_34 $end
   $var wire 32 "8 shin $end
   $var wire 1 ": _shin_T $end
   $var wire 32 "; _io_out_T_25 $end
   $var wire 32 "? _shin_T_36 $end
   $var wire 32 "@ _io_out_T_28 $end
   $var wire 28 "A _shitfl_T_22 $end
   $var wire 32 "B _shitfl_T_37 $end
   $var wire 1 "E _io_out_T $end
   $var wire 32 "F _io_out_T_13 $end
   $var wire 32 "G _shitfl_T_43 $end
   $var wire 1 "H _io_out_T_3 $end
   $var wire 32 "I _shin_T_24 $end
   $var wire 32 "L _shitfl_T_25 $end
   $var wire 32 "N _shin_T_39 $end
   $var wire 33 "O _shiftr_T_2 $end
   $var wire 32 "Q div $end
   $var wire 32 "R io_out $end
   $var wire 32 "S _shin_T_18 $end
   $var wire 31 "U _shin_T_45 $end
   $var wire 16 "W _shitfl_T_4 $end
   $var wire 32 "Z _shitfl_T_28 $end
   $var wire 30 "\ _shin_T_33 $end
   $var wire 32 "` _shitfl_T_7 $end
   $var wire 1 "g _io_out_T_6 $end
   $var wire 32 "h _shitfl_T_13 $end
   $var wire 32 "i shiftr $end
   $var wire 32 "k _sum_T_3 $end
   $var wire 32 "l _io_out_T_27 $end
   $var wire 24 "m _shin_T_15 $end
   $var wire 32 "o _io_out_T_33 $end
   $var wire 1 "q _io_out_T_9 $end
   $var wire 1 "t _io_out_T_21 $end
   $var wire 32 "u _io_out_T_15 $end
   $var wire 32 "v _shin_T_9 $end
   $var wire 32 #! _shitfl_T_45 $end
   $var wire 32 #" _shin_T_44 $end
   $var wire 33 #$ _shiftr_T_4 $end
   $var wire 32 #' _shitfl_T_27 $end
   $var wire 32 #( _io_out_T_24 $end
   $var wire 32 #) _shin_T_26 $end
   $var wire 1 #+ _io_out_T_18 $end
   $var wire 32 #- io_in_A $end
   $var wire 16 #. _shin_T_3 $end
   $var wire 32 #0 _io_out_T_30 $end
   $var wire 32 #3 _shitfl_T_33 $end
   $var wire 32 #6 _shitfl_T_15 $end
   $var wire 31 #7 _shitfl_T_42 $end
   $var wire 30 #9 _shin_T_35 $end
   $var wire 5 #; shamt $end
   $var wire 32 #> _shin_T_6 $end
   $var wire 1 #? _io_out_T_12 $end
   $var wire 32 #A _shin_T_29 $end
   $var wire 32 #C _shin_T_14 $end
   $var wire 32 #E _shin_T_38 $end
   $var wire 1 #H _io_out_T_2 $end
   $var wire 32 #I _shitfl_T_3 $end
   $var wire 28 #J _shitfl_T_24 $end
   $var wire 1 #K _shiftr_T_1 $end
   $var wire 32 #P _shitfl_T_18 $end
   $var wire 28 #Q _shin_T_23 $end
  $upscope $end
$upscope $end
$enddefinitions $end
$dumpvars
0o
0"c
0#D
b00000 5
b00000 #;
b00000000000000000000000000000000 #6
b000000000000 "0
0"P
b00000 "=
b00000000000000000000000000000000 "#
b00000000000000000000000000000000 "8
b00000000000000000000000000000000 "I
b00000000000000000000000000000000 "4
b00000000000000000000000000000000 #*
b00000000000000000000000000000000 Q
b000000000000000000000000000000000 "O
b00000000000000000000000000000000 w
b00000 '
b00000000000000000000000000000000 "G
b00000000000000000000000000000000 #(
b00000000000000000000000000000000 "*
0z
0"<
0@
0+
b00000000000000000000000000000000 "u
b00000000000000000000000000000000 A
b00000000000000000000000000000000 "X
b00000 "n
b00000 "Y
b00000 #:
b00000 #O
0"d
b00000000000000000000000000000000 m
0l
0#,
0".
b00000000000000000000000000000000 3
b00000000000000000000000000000000 "5
b000000000000 "[
b00000000000000000000000000000000 /
b00000000000000000000000000000000 "1
b0000000 "p
0?
b00000 "y
b00000000000000000000000000000000 t
b00000000000000000000000000000000 "v
0;
b00000000000000000000000000000000 "S
0Z
b00000000000000000000000000000000 [
0"9
b00000000000000000000000000000000 >
b000000000000000000000000000000 U
b00000 x
b00000 c
0"-
1"2
b0000000000000000000000000000000 "U
b00000000000000000000000000000000 "Q
b0000000000000000000000000000000 K
b000000000000000000000000 g
0|
b00000000000000000000000000000000 .
b00000000000000000000000000000000 "w
b00000000000000000000000000000000 #C
0-
0"z
0"]
b00000000000000000000000000000000 #&
b00000000000000000000000000000000 "(
0"+
b00000000000000000000000000000000 "^
b00000000000000000000000000000000 {
b00000 !
b0000 I
b00000000000000000000000000000000 #"
b0000000000000000000000000000000 #7
0"M
b00000000000000000000000000000000 =
b00000000000000000000000000000000 "i
b00000000000000000000000000000000 "T
b00000000000000000000000000000000 "?
b000000000000000000000000 "m
b000000000000000000000000 #
b000 #R
08
b00000000000000000000000000000000 N
b0000000000000000000000000000 #J
b00000000000000000000000000000000 #1
b0000000000000000 "W
b0000000 "r
b000 r
b0000 ~
b00000 "f
b00000 #G
b00000 "{
0"q
0#=
b00000000000000000000000000000000 a
1">
0#N
0\
b00000000000000000000000000000000 ]
b0000000000000000 7
0"&
b00000000000000000000000000000000 H
0G
b00000000000000000000000000000000 "_
b00000000000000000000000000000000 #@
b00000000000000000000000000000000 "B
b00000000000000000000000000000000 n
0""
b00000000000000000000000000000000 <
b00000 P
b000000000000 0
b00000000000000000000000000000000 #E
0"g
0#H
0"J
0#+
b00000000000000000000000000000000 O
b00000000000000000000000000000000 :
0"x
b00000 #F
b00000000000000000000000000000000 }
b00000000000000000000000000000000 h
b00000000000000000000000000000000 "`
b00000 "3
b00000000000000000000000000000000 `
b00000000000000000000000000000000 #A
b00000000000000000000000000000000 6
0#<
0")
b00000 p
0":
0)
b000000000000000000000000000000 "\
b00000000000000000000000000000000 "o
b00000000000000000000000000000000 #P
0v
0#K
b0000000000000000000000000000 "A
b00000000000000000000000000000000 "R
b00000000000000000000000000000000 #3
b000000000000000000000000000000000 #$
b00000000000000000000000000000000 "k
b00000000000000000000000000000000 #L
b00000 #4
b00000000000000000000000000000000 "N
b0000000000000000 E
b00000000000000000000000000000000 V
b000000000000000000000000000000000 #5
b0000000000000000000000000000000 J
0f
0"E
1*
04
b00000 #2
b00000000000000000000000000000000 "L
b00000000000000000000000000000000 #-
b00000000000000000000000000000000 "D
b00000000000000000000000000000000 "/
b00000000000000000000000000000000 #%
0b
b000 "~
0"$
0(
b00000000000000000000000000000000 #S
b00000000000000000000000000000000 #>
b00000000000000000000000000000000 #)
b00000000000000000000000000000000 "@
b000000000000000000000000000000000 Y
b00000000000000000000000000000000 #!
b000000000000 2
b00000 "s
b00000 "V
b00000 ",
b00000000000000000000000000000000 D
0q
0"e
1"j
b00000000000000000000000000000000 j
0i
0T
0"H
b00000 L
b0000000000000000000000000000 #Q
b00000000000000000000000000000000 "l
b00000000000000000000000000000000 #M
b00000000000000000000000000000000 #0
b0000000000000000000000000000 M
0#B
b00000 #/
0"'
b00000000000000000000000000000000 "}
b000000000000 "C
b00000000000000000000000000000000 "h
b00000000000000000000000000000000 #I
0"t
b00000 "a
b00000000000000000000000000000000 y
b00000000000000000000000000000000 d
0#8
0##
0"%
b00000000000000000000000000000000 u
0_
b00000000000000000000000000000000 ";
b00000000000000000000000000000000 C
0"6
0"!
0B
b00000000000000000000000000000000 "Z
b000000000000000000000000000000000 s
b000000000000000000000000000000 #9
0S
b000000000000000000000000000000 "7
b00000000000000000000000000000000 "|
0"b
b00000000000000000000000000000000 R
b000000000000000000000000000000000 e
b00000 X
0#T
b00000 &
b00000000000000000000000000000000 "F
b00000000000000000000000000000000 #'
b0000000000000000 #.
0#?
b00000 "K
b00000000000000000000000000000000 F
b00000000000000000000000000000000 1
b00000000101000000000000010010011 "
b000000000000000000000000 ^
b00000 k
b00000000000000000000000000000000 W
0,
b00000 9
0$
b00000000000000000000000000000000 %
$end
#0
1f
b00000000000000000000000000001010 Q
b00000000101000000000000010010011 <
14
1#8
b00000000000000000000000000001010 "u
b00000000000000000000000000001010 }
1"%
b01010 5
b000000001010 "C
b00001 "n
b01010 #;
b00000000000000000000000000001010 /
b00000000000000000000000000001010 "R
b000000001010 0
b01010 #4
b00000000000000000000000000001010 "T
b000000000000000000000000000000100 #5
b100110000000 2
1""
b111111111111111111111111111110110 e
b00000000000000000000000000001010 "k
1,
1"e
b00001 #F
b00000000000000000000000000001010 %
b10011 X
b00000000000000000000000000000100 #1
b00000000000000000000000000001010 .
b00000000101000000000000010010011 #*
1#H
b00001 x
b00001 p
1#,
b01010 "K
1#B
b00000000000000000000000000001010 "/
1"b
1"E
b000000000000000000000000000001010 s
1#D
18
b00001 k
b00000000000000000000000000001010 "F
b01010 9
b11111111111111111111111111110110 :
b00000000101000000000000010010011 #S
b0010011 "r
1#T
#1
b00000000000000000000000000001010 "^
1#N
1"P
b01010 #2
1Z
b00001 L
1"<
1(
1q
1"6
1"c
1z
1#<
1"M
1")
1"]
1|
1_
#6
0#N
0f
0"P
0#8
0Z
0(
0"<
0q
0"6
0"c
0z
0"M
0")
0"]
0|
0_
#11
b00000000000000000000000000000000 Q
b00000000000000000000000100010011 <
b00000000000000000000000000000100 "_
b00000000000000000000000000000000 "u
b00000000000000000000000000000000 }
0"%
b00000000000000000000000000000100 "X
b000000000000 "C
b00000 5
b00010 "n
1"<
b00000 #;
b00000000000000000000000000000000 /
b00000000000000000000000000000000 "R
b00001 "=
b000000000000 0
b00000 #4
1"6
b00000000000000000000000000000000 "T
b000000000000000000000000000001000 #5
1z
b000000000000000000000000000000000 e
1"M
b00000000000000000000000000000000 "k
1|
1_
1#N
b00010 #F
1"P
b00000000000000000000000000000000 %
b00000000000000000000000000001000 #1
b00000000000000000000000000000000 .
b00000000000000000000000100010011 #*
1Z
b00000000000000000000000000000100 "}
b00010 x
1(
b00010 p
b00000 "K
1q
b00000000000000000000000000000001 #%
b00000000000000000000000000000000 "/
b000000000000000000000000000000000 s
1"c
b00010 k
b00000000000000000000000000000000 "F
b00000 9
1")
b00000000000000000000000000000000 :
b00000000000000000000000100010011 #S
1"]
#16
0#N
0"P
0Z
0(
0"<
0q
0"6
0"c
0z
0"M
0")
0"]
0|
0_
#21
b00000000000000000000000110000000 Q
b00000000000100010010000000100011 <
b00000000000000000000000000001000 "_
04
1##
b00000000000000000000000110000000 }
1"%
1S
b00010 #O
b00001 #:
b00001 "Y
b00000 "n
1"<
1b
b000110000000 0
b00001 #4
1"6
b000110000000 2
1"M
b0100 I
b00000000000000000000000000001010 #M
0,
1"d
b00011 X
b00001 "f
b00000 #2
b00010 &
b00000000000100010010000000100011 #*
1o
1Z
b00000000000000000000000000001000 "}
b00000000000000000000000000001010 =
1(
1q
1?
0"b
b000110000000 "0
b000000000000000000000000110000000 s
b00000 k
1#=
b00000000000000000000000000001010 "*
b00001 "{
b00010 P
0#T
b00000000000000000000000000000000 "^
b00001 ",
b00000000000000000000000110000000 "u
b00000000000000000000000000001000 "X
b000000000001 "C
1"&
b00010 L
b00000000000000000000000110000000 /
b00000000000000000000000110000000 "R
b00010 "=
b00001 c
b000000000000000000000000000001100 #5
1z
0""
b111111111111111111111111010000000 e
b00000000000000000000000000001010 #L
b00010 "V
b00000000000000000000000110000000 "k
b00010 #/
1|
1"9
1_
1#N
0"e
1"P
b00000000000000000000000110000000 %
b00000 #F
b00000000000000000000000000001100 #1
b00010 "3
b00010 '
b00000 x
b00000 p
b00000000000000000000000000001010 [
b010 "~
b00001 "a
0#B
b00010 !
b00000000000000000000000000000010 #%
b00000000000000000000000110000000 "/
1"c
0#D
08
b000110000000 "[
b00000000000000000000000110000000 "F
1")
b11111111111111111111111010000000 :
b00000000000100010010000000100011 #S
1"]
b0100011 "r
#26
0#N
0"P
0Z
0(
0"<
0q
0"6
0"c
0z
0"M
0")
0"]
0|
0_
#31
b00000000000000000000000000000000 Q
b00000000000000000000000000000000 <
b00000000000000000000000000001100 "_
0##
b00000000000000000000000000000000 }
0"%
0S
b00000 #O
b00000 #:
b00000 "Y
1"<
b00000000000000000000000000001010 j
b000000000000 0
b00000 #4
1"6
b000000000000 2
1"M
b00000000000000000000000000001010 "#
b0000 I
b00000000000000000000000000000000 #M
0"d
b00000 X
b00000000000000000000000000001010 .
b00000 "f
b00000 &
b00000000000000000000000000000000 #*
0o
1Z
b00000000000000000000000000001100 "}
b00000000000000000000000000000000 =
1(
1q
0?
b000000000000 "0
b000000000000000000000000000000000 s
b00000000000000000000000000001010 "(
0#=
b00000000000000000000000000000000 "*
b00000 "{
b00000 P
b00000 ",
b00000000000000000000000000000000 "u
b00000000000000000000000000001100 "X
b000000000000 "C
0"&
b00000 L
b00000000000000000000000000000000 /
b00000000000000000000000000000000 "R
b00011 "=
b00000 c
b00000000000000000000000000001010 "T
b000000000000000000000000000010000 #5
1z
b000000000000000000000000000000000 e
b00000000000000000000000000000000 #L
b00000 "V
b00000000000000000000000000000000 "k
b00000 #/
1|
1_
1#N
1"P
b00000000000000000000000000000000 %
b00000000000000000000000000010000 #1
b00000 "3
b00000 '
b00000000000000000000000000000000 [
b000 "~
b00000 "a
b00000 !
b00000000000000000000000000000011 #%
b00000000000000000000000000000000 "/
b00000000000000000000000000001010 "D
1"c
0#<
b000000000000 "[
b00000000000000000000000000000000 "F
1")
1"z
b00000000000000000000000000000000 :
b00000000000000000000000000000000 #S
1"]
b0000000 "r
#36
0#N
0"P
0Z
0(
0"<
0q
0"6
0"c
0z
0"M
0")
0"]
0|
0_
#41
b00000000000000000000000000001010 "^
1#N
1"P
b00000000000000000000000000010000 "_
b00000000000000000000000000010100 #1
b00000000000000000000000000010000 "X
1Z
b00000000000000000000000000010000 "}
1(
1"<
b00000000000000000000000000000000 j
1q
b00100 "=
b00000000000000000000000000000100 #%
1"6
b000000000000000000000000000010100 #5
1"c
1z
1"M
1")
0"z
1"]
1|
1_
#46
0#N
0"P
0Z
0(
0"<
0q
0"6
0"c
0z
0"M
0")
0"]
0|
0_
#51
1#N
1"P
b00000000000000000000000000010100 "_
b00000000000000000000000000011000 #1
b00000000000000000000000000010100 "X
1Z
b00000000000000000000000000010100 "}
1(
1"<
1q
b00101 "=
b00000000000000000000000000000101 #%
1"6
b000000000000000000000000000011000 #5
1"c
1z
1"M
1")
1"]
1|
1_
