test_run_dir/Countertester_file/Counter.vcd
$date
2023-08-07T19:21+0000
$end
$version
0.2
$end
$comment

$end
$timescale 1ns  $end
$scope module Counter $end
 $var wire 16 ! count $end
 $var wire 16 " _T $end
 $var wire 14 # _GEN_2 $end
 $var wire 17 $ _count_T $end
 $var wire 16 % _count_T_1 $end
 $var wire 1 & clock $end
 $var wire 1 ' io_result $end
 $var wire 16 ( _GEN_0 $end
 $var wire 1 ) reset $end
$upscope $end
$enddefinitions $end
$dumpvars
0)
0&
b0000000000000000 %
b0000000000000000 (
b00000000000000 #
b00000000000000000 $
0'
b0000000000000000 !
b0000000000000000 "
$end
#0
b0000000000000001 %
b00000000000000001 $
b0000000000000001 (
1)
#1
1&
#6
0&
0)
#11
b0000000000000001 !
b0000000000000010 %
1&
b00000000000000010 $
b0000000000000010 (
#16
0&
#21
b0000000000000010 !
b0000000000000011 %
1&
b00000000000000011 $
b0000000000000011 (
#26
0&
#31
b0000000000000011 !
b0000000000000100 %
1&
b00000000000000100 $
b0000000000000100 (
#36
0&
#41
b0000000000000100 !
b0000000000000101 %
b0000000000000001 "
1&
b00000000000001 #
1'
b00000000000000101 $
b0000000000000000 (
#46
0&
#51
b0000000000000000 !
b0000000000000001 %
b0000000000000000 "
1&
b00000000000000 #
0'
b00000000000000001 $
b0000000000000001 (
#56
0&
#61
b0000000000000001 !
b0000000000000010 %
1&
b00000000000000010 $
b0000000000000010 (
#66
0&
#71
b0000000000000010 !
b0000000000000011 %
1&
b00000000000000011 $
b0000000000000011 (
#76
0&
#81
b0000000000000011 !
b0000000000000100 %
1&
b00000000000000100 $
b0000000000000100 (
#86
0&
#91
b0000000000000100 !
b0000000000000101 %
b0000000000000001 "
1&
b00000000000001 #
1'
b00000000000000101 $
b0000000000000000 (
#96
0&
#101
b0000000000000000 !
b0000000000000001 %
b0000000000000000 "
1&
b00000000000000 #
0'
b00000000000000001 $
b0000000000000001 (
#106
0&
#111
b0000000000000001 !
b0000000000000010 %
1&
b00000000000000010 $
b0000000000000010 (
#116
0&
#121
b0000000000000010 !
b0000000000000011 %
1&
b00000000000000011 $
b0000000000000011 (
#126
0&
#131
b0000000000000011 !
b0000000000000100 %
1&
b00000000000000100 $
b0000000000000100 (
