test_run_dir/lab_6_ex_3/twoshot.vcd
$date
2023-09-01T01:07+0000
$end
$version
0.2
$end
$comment

$end
$timescale 1ns  $end
$scope module twoshot $end
 $var wire 8 ! next $end
 $var wire 4 " io_out $end
 $var wire 2 # _GEN_2 $end
 $var wire 1 $ _T $end
 $var wire 4 % io_din $end
 $var wire 8 & _next_T_1 $end
 $var wire 2 ' _shots_remaining_T_1 $end
 $var wire 1 ( done $end
 $var wire 9 ) _next_T $end
 $var wire 8 * _GEN_1 $end
 $var wire 2 + _GEN_4 $end
 $var wire 3 , _shots_remaining_T $end
 $var wire 1 - clock $end
 $var wire 2 . _GEN_0 $end
 $var wire 1 / reset $end
 $var wire 8 0 _GEN_3 $end
 $var wire 8 1 timer_count $end
 $var wire 2 2 shots_remaining $end
$upscope $end
$enddefinitions $end
$dumpvars
b00 .
b00 '
0-
b00000000 !
b00000000 0
b00000000 1
0/
b000 ,
b0000 "
b00000000 *
0(
b00 #
b00 2
b00 +
b00000000 &
b0000 %
0$
b000000000 )
$end
#0
b11111111 &
b11 '
b10 +
1(
1/
b111 ,
b111111111 )
#1
1-
b10 .
b10 #
b10 2
b01 '
b001 ,
#6
b00000101 0
0-
b0101 %
0/
#11
b00000101 !
1-
b00000101 *
#16
0-
#21
b00000100 0
1-
b0101 "
b00000101 1
b01 .
b00000100 &
b00000100 *
1$
0(
b000000100 )
#26
0-
#31
b00000100 !
1-
#36
0-
#41
b00000011 0
1-
b0100 "
b00000100 1
b00000011 &
b00000011 *
b000000011 )
#46
0-
#51
b00000011 !
1-
#56
0-
#61
b00000010 0
1-
b0011 "
b00000011 1
b00000010 &
b00000010 *
b000000010 )
#66
0-
#71
b00000010 !
1-
#76
0-
#81
b00000001 0
1-
b0010 "
b00000010 1
b00000001 &
b00000001 *
b000000001 )
#86
0-
#91
b00000001 !
1-
#96
0-
#101
b00000000 0
1-
b0001 "
b00000001 1
b00000000 &
b00000000 *
b000000000 )
#106
0-
#111
b00000000 !
1-
#116
0-
#121
b00000101 0
1-
b0000 "
b00000000 1
b10 .
b11111111 &
0$
1(
b111111111 )
#126
0-
#131
b00000101 !
1-
b00000101 *
#136
0-
#141
b00000100 0
1-
b0101 "
b00000101 1
b01 .
b00000100 &
b00000100 *
1$
0(
b000000100 )
#146
0-
#151
b00000100 !
1-
#156
0-
#161
b00000011 0
1-
b0100 "
b00000100 1
b00000011 &
b00000011 *
b000000011 )
#166
0-
#171
b00000011 !
1-
#176
0-
#181
b00000010 0
1-
b0011 "
b00000011 1
b00000010 &
b00000010 *
b000000010 )
#186
0-
#191
b00000010 !
1-
#196
0-
#201
b00000001 0
1-
b0010 "
b00000010 1
b00000001 &
b00000001 *
b000000001 )
#206
0-
#211
b00000001 !
1-
#216
0-
#221
b00000000 0
1-
b0001 "
b00000001 1
b00000000 &
b00000000 *
b000000000 )
#226
0-
#231
b00000000 !
1-
#236
0-
#241
b00000101 0
1-
b0000 "
b00000000 1
b10 .
b11111111 &
0$
1(
b111111111 )
#246
0-
#251
b00000101 !
1-
b00000101 *
#256
b00000000 0
0-
b0000 %
#261
b00000000 !
b00000100 0
1-
b0101 "
b00000101 1
b01 .
b00000100 &
b00000100 *
1$
0(
b000000100 )
